%!PS-Adobe-3.0 EPSF-3.0
%%Creator: (MATLAB, The Mathworks, Inc. Version 9.4.0.813654 \(R2018a\). Operating System: Mac OS X)
%%Title: /Users/michal/Repositories/spectral/code/const-eigs.eps
%%CreationDate: 2018-09-23T11:00:51
%%Pages: (atend)
%%BoundingBox: 0 0 500 300
%%LanguageLevel: 3
%%EndComments
%%BeginProlog
%%BeginResource: procset (Apache XML Graphics Std ProcSet) 1.2 0
%%Version: 1.2 0
%%Copyright: (Copyright 2001-2003,2010 The Apache Software Foundation. License terms: http://www.apache.org/licenses/LICENSE-2.0)
/bd{bind def}bind def
/ld{load def}bd
/GR/grestore ld
/GS/gsave ld
/RM/rmoveto ld
/C/curveto ld
/t/show ld
/L/lineto ld
/ML/setmiterlimit ld
/CT/concat ld
/f/fill ld
/N/newpath ld
/S/stroke ld
/CC/setcmykcolor ld
/A/ashow ld
/cp/closepath ld
/RC/setrgbcolor ld
/LJ/setlinejoin ld
/GC/setgray ld
/LW/setlinewidth ld
/M/moveto ld
/re {4 2 roll M
1 index 0 rlineto
0 exch rlineto
neg 0 rlineto
cp } bd
/_ctm matrix def
/_tm matrix def
/BT { _ctm currentmatrix pop matrix _tm copy pop 0 0 moveto } bd
/ET { _ctm setmatrix } bd
/iTm { _ctm setmatrix _tm concat } bd
/Tm { _tm astore pop iTm 0 0 moveto } bd
/ux 0.0 def
/uy 0.0 def
/F {
  /Tp exch def
  /Tf exch def
  Tf findfont Tp scalefont setfont
  /cf Tf def  /cs Tp def
} bd
/ULS {currentpoint /uy exch def /ux exch def} bd
/ULE {
  /Tcx currentpoint pop def
  gsave
  newpath
  cf findfont cs scalefont dup
  /FontMatrix get 0 get /Ts exch def /FontInfo get dup
  /UnderlinePosition get Ts mul /To exch def
  /UnderlineThickness get Ts mul /Tt exch def
  ux uy To add moveto  Tcx uy To add lineto
  Tt setlinewidth stroke
  grestore
} bd
/OLE {
  /Tcx currentpoint pop def
  gsave
  newpath
  cf findfont cs scalefont dup
  /FontMatrix get 0 get /Ts exch def /FontInfo get dup
  /UnderlinePosition get Ts mul /To exch def
  /UnderlineThickness get Ts mul /Tt exch def
  ux uy To add cs add moveto Tcx uy To add cs add lineto
  Tt setlinewidth stroke
  grestore
} bd
/SOE {
  /Tcx currentpoint pop def
  gsave
  newpath
  cf findfont cs scalefont dup
  /FontMatrix get 0 get /Ts exch def /FontInfo get dup
  /UnderlinePosition get Ts mul /To exch def
  /UnderlineThickness get Ts mul /Tt exch def
  ux uy To add cs 10 mul 26 idiv add moveto Tcx uy To add cs 10 mul 26 idiv add lineto
  Tt setlinewidth stroke
  grestore
} bd
/QT {
/Y22 exch store
/X22 exch store
/Y21 exch store
/X21 exch store
currentpoint
/Y21 load 2 mul add 3 div exch
/X21 load 2 mul add 3 div exch
/X21 load 2 mul /X22 load add 3 div
/Y21 load 2 mul /Y22 load add 3 div
/X22 load /Y22 load curveto
} bd
/SSPD {
dup length /d exch dict def
{
/v exch def
/k exch def
currentpagedevice k known {
/cpdv currentpagedevice k get def
v cpdv ne {
/upd false def
/nullv v type /nulltype eq def
/nullcpdv cpdv type /nulltype eq def
nullv nullcpdv or
{
/upd true def
} {
/sametype v type cpdv type eq def
sametype {
v type /arraytype eq {
/vlen v length def
/cpdvlen cpdv length def
vlen cpdvlen eq {
0 1 vlen 1 sub {
/i exch def
/obj v i get def
/cpdobj cpdv i get def
obj cpdobj ne {
/upd true def
exit
} if
} for
} {
/upd true def
} ifelse
} {
v type /dicttype eq {
v {
/dv exch def
/dk exch def
/cpddv cpdv dk get def
dv cpddv ne {
/upd true def
exit
} if
} forall
} {
/upd true def
} ifelse
} ifelse
} if
} ifelse
upd true eq {
d k v put
} if
} if
} if
} forall
d length 0 gt {
d setpagedevice
} if
} bd
/RE { % /NewFontName [NewEncodingArray] /FontName RE -
  findfont dup length dict begin
  {
    1 index /FID ne
    {def} {pop pop} ifelse
  } forall
  /Encoding exch def
  /FontName 1 index def
  currentdict definefont pop
  end
} bind def
%%EndResource
%%BeginResource: procset (Apache XML Graphics EPS ProcSet) 1.0 0
%%Version: 1.0 0
%%Copyright: (Copyright 2002-2003 The Apache Software Foundation. License terms: http://www.apache.org/licenses/LICENSE-2.0)
/BeginEPSF { %def
/b4_Inc_state save def         % Save state for cleanup
/dict_count countdictstack def % Count objects on dict stack
/op_count count 1 sub def      % Count objects on operand stack
userdict begin                 % Push userdict on dict stack
/showpage { } def              % Redefine showpage, { } = null proc
0 setgray 0 setlinecap         % Prepare graphics state
1 setlinewidth 0 setlinejoin
10 setmiterlimit [ ] 0 setdash newpath
/languagelevel where           % If level not equal to 1 then
{pop languagelevel             % set strokeadjust and
1 ne                           % overprint to their defaults.
{false setstrokeadjust false setoverprint
} if
} if
} bd
/EndEPSF { %def
count op_count sub {pop} repeat            % Clean up stacks
countdictstack dict_count sub {end} repeat
b4_Inc_state restore
} bd
%%EndResource
%FOPBeginFontDict
%%IncludeResource: font Courier-Oblique
%%IncludeResource: font Courier-BoldOblique
%%IncludeResource: font Courier-Bold
%%IncludeResource: font ZapfDingbats
%%IncludeResource: font Symbol
%%IncludeResource: font Helvetica
%%IncludeResource: font Helvetica-Oblique
%%IncludeResource: font Helvetica-Bold
%%IncludeResource: font Helvetica-BoldOblique
%%IncludeResource: font Times-Roman
%%IncludeResource: font Times-Italic
%%IncludeResource: font Times-Bold
%%IncludeResource: font Times-BoldItalic
%%IncludeResource: font Courier
%FOPEndFontDict
%%BeginResource: encoding WinAnsiEncoding
/WinAnsiEncoding [
/.notdef /.notdef /.notdef /.notdef /.notdef
/.notdef /.notdef /.notdef /.notdef /.notdef
/.notdef /.notdef /.notdef /.notdef /.notdef
/.notdef /.notdef /.notdef /.notdef /.notdef
/.notdef /.notdef /.notdef /.notdef /.notdef
/.notdef /.notdef /.notdef /.notdef /.notdef
/.notdef /.notdef /space /exclam /quotedbl
/numbersign /dollar /percent /ampersand /quotesingle
/parenleft /parenright /asterisk /plus /comma
/hyphen /period /slash /zero /one
/two /three /four /five /six
/seven /eight /nine /colon /semicolon
/less /equal /greater /question /at
/A /B /C /D /E
/F /G /H /I /J
/K /L /M /N /O
/P /Q /R /S /T
/U /V /W /X /Y
/Z /bracketleft /backslash /bracketright /asciicircum
/underscore /quoteleft /a /b /c
/d /e /f /g /h
/i /j /k /l /m
/n /o /p /q /r
/s /t /u /v /w
/x /y /z /braceleft /bar
/braceright /asciitilde /bullet /Euro /bullet
/quotesinglbase /florin /quotedblbase /ellipsis /dagger
/daggerdbl /circumflex /perthousand /Scaron /guilsinglleft
/OE /bullet /Zcaron /bullet /bullet
/quoteleft /quoteright /quotedblleft /quotedblright /bullet
/endash /emdash /asciitilde /trademark /scaron
/guilsinglright /oe /bullet /zcaron /Ydieresis
/space /exclamdown /cent /sterling /currency
/yen /brokenbar /section /dieresis /copyright
/ordfeminine /guillemotleft /logicalnot /sfthyphen /registered
/macron /degree /plusminus /twosuperior /threesuperior
/acute /mu /paragraph /middot /cedilla
/onesuperior /ordmasculine /guillemotright /onequarter /onehalf
/threequarters /questiondown /Agrave /Aacute /Acircumflex
/Atilde /Adieresis /Aring /AE /Ccedilla
/Egrave /Eacute /Ecircumflex /Edieresis /Igrave
/Iacute /Icircumflex /Idieresis /Eth /Ntilde
/Ograve /Oacute /Ocircumflex /Otilde /Odieresis
/multiply /Oslash /Ugrave /Uacute /Ucircumflex
/Udieresis /Yacute /Thorn /germandbls /agrave
/aacute /acircumflex /atilde /adieresis /aring
/ae /ccedilla /egrave /eacute /ecircumflex
/edieresis /igrave /iacute /icircumflex /idieresis
/eth /ntilde /ograve /oacute /ocircumflex
/otilde /odieresis /divide /oslash /ugrave
/uacute /ucircumflex /udieresis /yacute /thorn
/ydieresis
] def
%%EndResource
%FOPBeginFontReencode
/Courier-Oblique findfont
dup length dict begin
  {1 index /FID ne {def} {pop pop} ifelse} forall
  /Encoding WinAnsiEncoding def
  currentdict
end
/Courier-Oblique exch definefont pop
/Courier-BoldOblique findfont
dup length dict begin
  {1 index /FID ne {def} {pop pop} ifelse} forall
  /Encoding WinAnsiEncoding def
  currentdict
end
/Courier-BoldOblique exch definefont pop
/Courier-Bold findfont
dup length dict begin
  {1 index /FID ne {def} {pop pop} ifelse} forall
  /Encoding WinAnsiEncoding def
  currentdict
end
/Courier-Bold exch definefont pop
/Helvetica findfont
dup length dict begin
  {1 index /FID ne {def} {pop pop} ifelse} forall
  /Encoding WinAnsiEncoding def
  currentdict
end
/Helvetica exch definefont pop
/Helvetica-Oblique findfont
dup length dict begin
  {1 index /FID ne {def} {pop pop} ifelse} forall
  /Encoding WinAnsiEncoding def
  currentdict
end
/Helvetica-Oblique exch definefont pop
/Helvetica-Bold findfont
dup length dict begin
  {1 index /FID ne {def} {pop pop} ifelse} forall
  /Encoding WinAnsiEncoding def
  currentdict
end
/Helvetica-Bold exch definefont pop
/Helvetica-BoldOblique findfont
dup length dict begin
  {1 index /FID ne {def} {pop pop} ifelse} forall
  /Encoding WinAnsiEncoding def
  currentdict
end
/Helvetica-BoldOblique exch definefont pop
/Times-Roman findfont
dup length dict begin
  {1 index /FID ne {def} {pop pop} ifelse} forall
  /Encoding WinAnsiEncoding def
  currentdict
end
/Times-Roman exch definefont pop
/Times-Italic findfont
dup length dict begin
  {1 index /FID ne {def} {pop pop} ifelse} forall
  /Encoding WinAnsiEncoding def
  currentdict
end
/Times-Italic exch definefont pop
/Times-Bold findfont
dup length dict begin
  {1 index /FID ne {def} {pop pop} ifelse} forall
  /Encoding WinAnsiEncoding def
  currentdict
end
/Times-Bold exch definefont pop
/Times-BoldItalic findfont
dup length dict begin
  {1 index /FID ne {def} {pop pop} ifelse} forall
  /Encoding WinAnsiEncoding def
  currentdict
end
/Times-BoldItalic exch definefont pop
/Courier findfont
dup length dict begin
  {1 index /FID ne {def} {pop pop} ifelse} forall
  /Encoding WinAnsiEncoding def
  currentdict
end
/Courier exch definefont pop
%FOPEndFontReencode
%%EndProlog
%%Page: 1 1
%%PageBoundingBox: 0 0 500 300
%%BeginPageSetup
[1 0 0 -1 0 300] CT
%%EndPageSetup
GS
1 GC
N
0 0 500 300 re
f
GR
GS
1 GC
N
0 0 500 300 re
f
GR
GS
1 GC
N
65 256 M
452.5 256 L
452.5 22.5 L
65 22.5 L
cp
f
GR
GS
0.149 GC
2 setlinecap
1 LJ
0.5 LW
N
65 256 M
452.5 256 L
S
GR
GS
0.149 GC
2 setlinecap
1 LJ
0.5 LW
N
65 256 M
65 252.125 L
S
GR
GS
0.149 GC
2 setlinecap
1 LJ
0.5 LW
N
129.583 256 M
129.583 252.125 L
S
GR
GS
0.149 GC
2 setlinecap
1 LJ
0.5 LW
N
194.167 256 M
194.167 252.125 L
S
GR
GS
0.149 GC
2 setlinecap
1 LJ
0.5 LW
N
258.75 256 M
258.75 252.125 L
S
GR
GS
0.149 GC
2 setlinecap
1 LJ
0.5 LW
N
323.333 256 M
323.333 252.125 L
S
GR
GS
0.149 GC
2 setlinecap
1 LJ
0.5 LW
N
387.917 256 M
387.917 252.125 L
S
GR
GS
0.149 GC
2 setlinecap
1 LJ
0.5 LW
N
452.5 256 M
452.5 252.125 L
S
GR
GS
[1 0 0 1 65 261] CT
0.149 GC
/Helvetica 15 F
GS
[1 0 0 1 0 0] CT
-4.5 15 moveto 
1 -1 scale
(0) t 
GR
GR
GS
[1 0 0 1 129.58333 261] CT
0.149 GC
/Helvetica 15 F
GS
[1 0 0 1 0 0] CT
-13 15 moveto 
1 -1 scale
(100) t 
GR
GR
GS
[1 0 0 1 194.16667 261] CT
0.149 GC
/Helvetica 15 F
GS
[1 0 0 1 0 0] CT
-13 15 moveto 
1 -1 scale
(200) t 
GR
GR
GS
[1 0 0 1 258.75 261] CT
0.149 GC
/Helvetica 15 F
GS
[1 0 0 1 0 0] CT
-13 15 moveto 
1 -1 scale
(300) t 
GR
GR
GS
[1 0 0 1 323.33334 261] CT
0.149 GC
/Helvetica 15 F
GS
[1 0 0 1 0 0] CT
-13 15 moveto 
1 -1 scale
(400) t 
GR
GR
GS
[1 0 0 1 387.91666 261] CT
0.149 GC
/Helvetica 15 F
GS
[1 0 0 1 0 0] CT
-13 15 moveto 
1 -1 scale
(500) t 
GR
GR
GS
[1 0 0 1 452.5 261] CT
0.149 GC
/Helvetica 15 F
GS
[1 0 0 1 0 0] CT
-13 15 moveto 
1 -1 scale
(600) t 
GR
GR
GS
[1 0 0 1 258.75018 280] CT
0.149 GC
/Helvetica 16.5 F
GS
[1 0 0 1 0 0] CT
-45.5 16 moveto 
1 -1 scale
(dimension d) t 
GR
GR
GS
0.149 GC
2 setlinecap
1 LJ
0.5 LW
N
65 256 M
65 22.5 L
S
GR
GS
0.149 GC
2 setlinecap
1 LJ
0.5 LW
N
65 256 M
68.875 256 L
S
GR
GS
0.149 GC
2 setlinecap
1 LJ
0.5 LW
N
65 222.643 M
68.875 222.643 L
S
GR
GS
0.149 GC
2 setlinecap
1 LJ
0.5 LW
N
65 189.286 M
68.875 189.286 L
S
GR
GS
0.149 GC
2 setlinecap
1 LJ
0.5 LW
N
65 155.929 M
68.875 155.929 L
S
GR
GS
0.149 GC
2 setlinecap
1 LJ
0.5 LW
N
65 122.571 M
68.875 122.571 L
S
GR
GS
0.149 GC
2 setlinecap
1 LJ
0.5 LW
N
65 89.214 M
68.875 89.214 L
S
GR
GS
0.149 GC
2 setlinecap
1 LJ
0.5 LW
N
65 55.857 M
68.875 55.857 L
S
GR
GS
0.149 GC
2 setlinecap
1 LJ
0.5 LW
N
65 22.5 M
68.875 22.5 L
S
GR
GS
[1 0 0 1 60 256] CT
0.149 GC
/Helvetica 15 F
GS
[1 0 0 1 0 0] CT
-9 5.5 moveto 
1 -1 scale
(0) t 
GR
GR
GS
[1 0 0 1 60 222.64285] CT
0.149 GC
/Helvetica 15 F
GS
[1 0 0 1 0 0] CT
-17 5.5 moveto 
1 -1 scale
(20) t 
GR
GR
GS
[1 0 0 1 60 189.28572] CT
0.149 GC
/Helvetica 15 F
GS
[1 0 0 1 0 0] CT
-17 5.5 moveto 
1 -1 scale
(40) t 
GR
GR
GS
[1 0 0 1 60 155.92857] CT
0.149 GC
/Helvetica 15 F
GS
[1 0 0 1 0 0] CT
-17 5.5 moveto 
1 -1 scale
(60) t 
GR
GR
GS
[1 0 0 1 60 122.57143] CT
0.149 GC
/Helvetica 15 F
GS
[1 0 0 1 0 0] CT
-17 5.5 moveto 
1 -1 scale
(80) t 
GR
GR
GS
[1 0 0 1 60 89.21429] CT
0.149 GC
/Helvetica 15 F
GS
[1 0 0 1 0 0] CT
-26 5.5 moveto 
1 -1 scale
(100) t 
GR
GR
GS
[1 0 0 1 60 55.85714] CT
0.149 GC
/Helvetica 15 F
GS
[1 0 0 1 0 0] CT
-26 5.5 moveto 
1 -1 scale
(120) t 
GR
GR
GS
[1 0 0 1 60 22.5] CT
0.149 GC
/Helvetica 15 F
GS
[1 0 0 1 0 0] CT
-26 5.5 moveto 
1 -1 scale
(140) t 
GR
GR
GS
[0 -1 1 0 31.5 139.24988] CT
0.149 GC
/Helvetica 16.5 F
GS
[1 0 0 1 0 0] CT
-105.5 -4 moveto 
1 -1 scale
(number of small eigenvalues) t 
GR
GR
GS
1 0 0 RC
1 LJ
2 LW
N
71.458 253.165 M
73.396 251.997 L
75.333 251.08 L
77.271 249.412 L
80.5 248.244 L
83.729 245.993 L
88.25 243.074 L
94.063 239.488 L
100.521 235.902 L
108.917 230.815 L
119.25 224.644 L
132.167 217.306 L
147.667 207.549 L
167.042 196.874 L
190.938 182.531 L
220.646 164.184 L
257.458 142.419 L
302.667 115.9 L
358.854 82.793 L
428.604 40.93 L
S
GR
GS
0 0 1 RC
1 LJ
2 LW
N
71.458 254.249 M
73.396 254.582 L
75.333 253.498 L
77.271 252.331 L
80.5 251.413 L
83.729 250.246 L
88.25 248.661 L
94.063 246.577 L
100.521 244.242 L
108.917 241.323 L
119.25 237.403 L
132.167 232.4 L
147.667 227.897 L
167.042 220.725 L
190.938 213.636 L
220.646 200.544 L
257.458 189.369 L
302.667 172.357 L
358.854 153.093 L
428.604 129.743 L
S
GR
GS
1 0 1 RC
1 LJ
2 LW
N
71.458 255.75 M
73.396 255.75 L
75.333 255.666 L
77.271 255.583 L
80.5 255.083 L
83.729 254.999 L
88.25 254.582 L
94.063 254.082 L
100.521 254.249 L
108.917 253.665 L
119.25 252.247 L
132.167 250.579 L
147.667 249.912 L
167.042 249.329 L
190.938 246.326 L
220.646 243.658 L
257.458 241.49 L
302.667 238.404 L
358.854 234.068 L
428.604 229.648 L
S
GR
GS
1 GC
N
231 88 M
231 35 L
93 35 L
93 88 L
cp
f
GR
GS
[1 0 0 1 130 45] CT
/Helvetica 13.5 F
GS
[1 0 0 1 0 0] CT
0 5 moveto 
1 -1 scale
(1xd, eigs < 0.25) t 
GR
GR
GS
1 0 0 RC
1 LJ
2 LW
N
97 45 M
127 45 L
S
GR
GS
[1 0 0 1 130 61.5] CT
/Helvetica 13.5 F
GS
[1 0 0 1 0 0] CT
0 5 moveto 
1 -1 scale
(2xd, eigs < 0.25) t 
GR
GR
GS
0 0 1 RC
1 LJ
2 LW
N
97 61.5 M
127 61.5 L
S
GR
GS
[1 0 0 1 130 78] CT
/Helvetica 13.5 F
GS
[1 0 0 1 0 0] CT
0 5 moveto 
1 -1 scale
(3xd, eigs < 0.25) t 
GR
GR
GS
1 0 1 RC
1 LJ
2 LW
N
97 78 M
127 78 L
S
GR
GS
0.149 GC
10.0 ML
0.5 LW
N
93 88 M
93 35 L
231 35 L
231 88 L
cp
S
GR
%%Trailer
%%Pages: 1
%%EOF
