%!PS-Adobe-3.0 EPSF-3.0
%%Creator: (MATLAB, The Mathworks, Inc. Version 9.4.0.813654 \(R2018a\). Operating System: Mac OS X)
%%Title: /Users/michal/Repositories/spectral/figs/const-eigs-unif.eps
%%CreationDate: 2018-09-23T11:45:27
%%Pages: (atend)
%%BoundingBox: 0 0 766 516
%%LanguageLevel: 3
%%EndComments
%%BeginProlog
%%BeginResource: procset (Apache XML Graphics Std ProcSet) 1.2 0
%%Version: 1.2 0
%%Copyright: (Copyright 2001-2003,2010 The Apache Software Foundation. License terms: http://www.apache.org/licenses/LICENSE-2.0)
/bd{bind def}bind def
/ld{load def}bd
/GR/grestore ld
/GS/gsave ld
/RM/rmoveto ld
/C/curveto ld
/t/show ld
/L/lineto ld
/ML/setmiterlimit ld
/CT/concat ld
/f/fill ld
/N/newpath ld
/S/stroke ld
/CC/setcmykcolor ld
/A/ashow ld
/cp/closepath ld
/RC/setrgbcolor ld
/LJ/setlinejoin ld
/GC/setgray ld
/LW/setlinewidth ld
/M/moveto ld
/re {4 2 roll M
1 index 0 rlineto
0 exch rlineto
neg 0 rlineto
cp } bd
/_ctm matrix def
/_tm matrix def
/BT { _ctm currentmatrix pop matrix _tm copy pop 0 0 moveto } bd
/ET { _ctm setmatrix } bd
/iTm { _ctm setmatrix _tm concat } bd
/Tm { _tm astore pop iTm 0 0 moveto } bd
/ux 0.0 def
/uy 0.0 def
/F {
  /Tp exch def
  /Tf exch def
  Tf findfont Tp scalefont setfont
  /cf Tf def  /cs Tp def
} bd
/ULS {currentpoint /uy exch def /ux exch def} bd
/ULE {
  /Tcx currentpoint pop def
  gsave
  newpath
  cf findfont cs scalefont dup
  /FontMatrix get 0 get /Ts exch def /FontInfo get dup
  /UnderlinePosition get Ts mul /To exch def
  /UnderlineThickness get Ts mul /Tt exch def
  ux uy To add moveto  Tcx uy To add lineto
  Tt setlinewidth stroke
  grestore
} bd
/OLE {
  /Tcx currentpoint pop def
  gsave
  newpath
  cf findfont cs scalefont dup
  /FontMatrix get 0 get /Ts exch def /FontInfo get dup
  /UnderlinePosition get Ts mul /To exch def
  /UnderlineThickness get Ts mul /Tt exch def
  ux uy To add cs add moveto Tcx uy To add cs add lineto
  Tt setlinewidth stroke
  grestore
} bd
/SOE {
  /Tcx currentpoint pop def
  gsave
  newpath
  cf findfont cs scalefont dup
  /FontMatrix get 0 get /Ts exch def /FontInfo get dup
  /UnderlinePosition get Ts mul /To exch def
  /UnderlineThickness get Ts mul /Tt exch def
  ux uy To add cs 10 mul 26 idiv add moveto Tcx uy To add cs 10 mul 26 idiv add lineto
  Tt setlinewidth stroke
  grestore
} bd
/QT {
/Y22 exch store
/X22 exch store
/Y21 exch store
/X21 exch store
currentpoint
/Y21 load 2 mul add 3 div exch
/X21 load 2 mul add 3 div exch
/X21 load 2 mul /X22 load add 3 div
/Y21 load 2 mul /Y22 load add 3 div
/X22 load /Y22 load curveto
} bd
/SSPD {
dup length /d exch dict def
{
/v exch def
/k exch def
currentpagedevice k known {
/cpdv currentpagedevice k get def
v cpdv ne {
/upd false def
/nullv v type /nulltype eq def
/nullcpdv cpdv type /nulltype eq def
nullv nullcpdv or
{
/upd true def
} {
/sametype v type cpdv type eq def
sametype {
v type /arraytype eq {
/vlen v length def
/cpdvlen cpdv length def
vlen cpdvlen eq {
0 1 vlen 1 sub {
/i exch def
/obj v i get def
/cpdobj cpdv i get def
obj cpdobj ne {
/upd true def
exit
} if
} for
} {
/upd true def
} ifelse
} {
v type /dicttype eq {
v {
/dv exch def
/dk exch def
/cpddv cpdv dk get def
dv cpddv ne {
/upd true def
exit
} if
} forall
} {
/upd true def
} ifelse
} ifelse
} if
} ifelse
upd true eq {
d k v put
} if
} if
} if
} forall
d length 0 gt {
d setpagedevice
} if
} bd
/RE { % /NewFontName [NewEncodingArray] /FontName RE -
  findfont dup length dict begin
  {
    1 index /FID ne
    {def} {pop pop} ifelse
  } forall
  /Encoding exch def
  /FontName 1 index def
  currentdict definefont pop
  end
} bind def
%%EndResource
%%BeginResource: procset (Apache XML Graphics EPS ProcSet) 1.0 0
%%Version: 1.0 0
%%Copyright: (Copyright 2002-2003 The Apache Software Foundation. License terms: http://www.apache.org/licenses/LICENSE-2.0)
/BeginEPSF { %def
/b4_Inc_state save def         % Save state for cleanup
/dict_count countdictstack def % Count objects on dict stack
/op_count count 1 sub def      % Count objects on operand stack
userdict begin                 % Push userdict on dict stack
/showpage { } def              % Redefine showpage, { } = null proc
0 setgray 0 setlinecap         % Prepare graphics state
1 setlinewidth 0 setlinejoin
10 setmiterlimit [ ] 0 setdash newpath
/languagelevel where           % If level not equal to 1 then
{pop languagelevel             % set strokeadjust and
1 ne                           % overprint to their defaults.
{false setstrokeadjust false setoverprint
} if
} if
} bd
/EndEPSF { %def
count op_count sub {pop} repeat            % Clean up stacks
countdictstack dict_count sub {end} repeat
b4_Inc_state restore
} bd
%%EndResource
%FOPBeginFontDict
%%IncludeResource: font Courier-Oblique
%%IncludeResource: font Courier-BoldOblique
%%IncludeResource: font Courier-Bold
%%IncludeResource: font ZapfDingbats
%%IncludeResource: font Symbol
%%IncludeResource: font Helvetica
%%IncludeResource: font Helvetica-Oblique
%%IncludeResource: font Helvetica-Bold
%%IncludeResource: font Helvetica-BoldOblique
%%IncludeResource: font Times-Roman
%%IncludeResource: font Times-Italic
%%IncludeResource: font Times-Bold
%%IncludeResource: font Times-BoldItalic
%%IncludeResource: font Courier
%FOPEndFontDict
%%BeginResource: encoding WinAnsiEncoding
/WinAnsiEncoding [
/.notdef /.notdef /.notdef /.notdef /.notdef
/.notdef /.notdef /.notdef /.notdef /.notdef
/.notdef /.notdef /.notdef /.notdef /.notdef
/.notdef /.notdef /.notdef /.notdef /.notdef
/.notdef /.notdef /.notdef /.notdef /.notdef
/.notdef /.notdef /.notdef /.notdef /.notdef
/.notdef /.notdef /space /exclam /quotedbl
/numbersign /dollar /percent /ampersand /quotesingle
/parenleft /parenright /asterisk /plus /comma
/hyphen /period /slash /zero /one
/two /three /four /five /six
/seven /eight /nine /colon /semicolon
/less /equal /greater /question /at
/A /B /C /D /E
/F /G /H /I /J
/K /L /M /N /O
/P /Q /R /S /T
/U /V /W /X /Y
/Z /bracketleft /backslash /bracketright /asciicircum
/underscore /quoteleft /a /b /c
/d /e /f /g /h
/i /j /k /l /m
/n /o /p /q /r
/s /t /u /v /w
/x /y /z /braceleft /bar
/braceright /asciitilde /bullet /Euro /bullet
/quotesinglbase /florin /quotedblbase /ellipsis /dagger
/daggerdbl /circumflex /perthousand /Scaron /guilsinglleft
/OE /bullet /Zcaron /bullet /bullet
/quoteleft /quoteright /quotedblleft /quotedblright /bullet
/endash /emdash /asciitilde /trademark /scaron
/guilsinglright /oe /bullet /zcaron /Ydieresis
/space /exclamdown /cent /sterling /currency
/yen /brokenbar /section /dieresis /copyright
/ordfeminine /guillemotleft /logicalnot /sfthyphen /registered
/macron /degree /plusminus /twosuperior /threesuperior
/acute /mu /paragraph /middot /cedilla
/onesuperior /ordmasculine /guillemotright /onequarter /onehalf
/threequarters /questiondown /Agrave /Aacute /Acircumflex
/Atilde /Adieresis /Aring /AE /Ccedilla
/Egrave /Eacute /Ecircumflex /Edieresis /Igrave
/Iacute /Icircumflex /Idieresis /Eth /Ntilde
/Ograve /Oacute /Ocircumflex /Otilde /Odieresis
/multiply /Oslash /Ugrave /Uacute /Ucircumflex
/Udieresis /Yacute /Thorn /germandbls /agrave
/aacute /acircumflex /atilde /adieresis /aring
/ae /ccedilla /egrave /eacute /ecircumflex
/edieresis /igrave /iacute /icircumflex /idieresis
/eth /ntilde /ograve /oacute /ocircumflex
/otilde /odieresis /divide /oslash /ugrave
/uacute /ucircumflex /udieresis /yacute /thorn
/ydieresis
] def
%%EndResource
%FOPBeginFontReencode
/Courier-Oblique findfont
dup length dict begin
  {1 index /FID ne {def} {pop pop} ifelse} forall
  /Encoding WinAnsiEncoding def
  currentdict
end
/Courier-Oblique exch definefont pop
/Courier-BoldOblique findfont
dup length dict begin
  {1 index /FID ne {def} {pop pop} ifelse} forall
  /Encoding WinAnsiEncoding def
  currentdict
end
/Courier-BoldOblique exch definefont pop
/Courier-Bold findfont
dup length dict begin
  {1 index /FID ne {def} {pop pop} ifelse} forall
  /Encoding WinAnsiEncoding def
  currentdict
end
/Courier-Bold exch definefont pop
/Helvetica findfont
dup length dict begin
  {1 index /FID ne {def} {pop pop} ifelse} forall
  /Encoding WinAnsiEncoding def
  currentdict
end
/Helvetica exch definefont pop
/Helvetica-Oblique findfont
dup length dict begin
  {1 index /FID ne {def} {pop pop} ifelse} forall
  /Encoding WinAnsiEncoding def
  currentdict
end
/Helvetica-Oblique exch definefont pop
/Helvetica-Bold findfont
dup length dict begin
  {1 index /FID ne {def} {pop pop} ifelse} forall
  /Encoding WinAnsiEncoding def
  currentdict
end
/Helvetica-Bold exch definefont pop
/Helvetica-BoldOblique findfont
dup length dict begin
  {1 index /FID ne {def} {pop pop} ifelse} forall
  /Encoding WinAnsiEncoding def
  currentdict
end
/Helvetica-BoldOblique exch definefont pop
/Times-Roman findfont
dup length dict begin
  {1 index /FID ne {def} {pop pop} ifelse} forall
  /Encoding WinAnsiEncoding def
  currentdict
end
/Times-Roman exch definefont pop
/Times-Italic findfont
dup length dict begin
  {1 index /FID ne {def} {pop pop} ifelse} forall
  /Encoding WinAnsiEncoding def
  currentdict
end
/Times-Italic exch definefont pop
/Times-Bold findfont
dup length dict begin
  {1 index /FID ne {def} {pop pop} ifelse} forall
  /Encoding WinAnsiEncoding def
  currentdict
end
/Times-Bold exch definefont pop
/Times-BoldItalic findfont
dup length dict begin
  {1 index /FID ne {def} {pop pop} ifelse} forall
  /Encoding WinAnsiEncoding def
  currentdict
end
/Times-BoldItalic exch definefont pop
/Courier findfont
dup length dict begin
  {1 index /FID ne {def} {pop pop} ifelse} forall
  /Encoding WinAnsiEncoding def
  currentdict
end
/Courier exch definefont pop
%FOPEndFontReencode
%%EndProlog
%%Page: 1 1
%%PageBoundingBox: 0 0 766 516
%%BeginPageSetup
[1 0 0 -1 0 516] CT
%%EndPageSetup
GS
1 GC
N
0 0 766 516 re
f
GR
GS
1 GC
N
0 0 766 516 re
f
GR
GS
1 GC
N
99.5 459 M
693 459 L
693 38.5 L
99.5 38.5 L
cp
f
GR
GS
0.149 GC
2 setlinecap
1 LJ
0.5 LW
N
99.5 459 M
693 459 L
S
GR
GS
0.149 GC
2 setlinecap
1 LJ
0.5 LW
N
99.5 459 M
99.5 453.065 L
S
GR
GS
0.149 GC
2 setlinecap
1 LJ
0.5 LW
N
184.286 459 M
184.286 453.065 L
S
GR
GS
0.149 GC
2 setlinecap
1 LJ
0.5 LW
N
269.071 459 M
269.071 453.065 L
S
GR
GS
0.149 GC
2 setlinecap
1 LJ
0.5 LW
N
353.857 459 M
353.857 453.065 L
S
GR
GS
0.149 GC
2 setlinecap
1 LJ
0.5 LW
N
438.643 459 M
438.643 453.065 L
S
GR
GS
0.149 GC
2 setlinecap
1 LJ
0.5 LW
N
523.429 459 M
523.429 453.065 L
S
GR
GS
0.149 GC
2 setlinecap
1 LJ
0.5 LW
N
608.214 459 M
608.214 453.065 L
S
GR
GS
0.149 GC
2 setlinecap
1 LJ
0.5 LW
N
693 459 M
693 453.065 L
S
GR
GS
[1 0 0 1 99.5 464] CT
0.149 GC
/Helvetica 15 F
GS
[1 0 0 1 0 0] CT
-4.5 15 moveto 
1 -1 scale
(0) t 
GR
GR
GS
[1 0 0 1 184.28572 464] CT
0.149 GC
/Helvetica 15 F
GS
[1 0 0 1 0 0] CT
-13 15 moveto 
1 -1 scale
(500) t 
GR
GR
GS
[1 0 0 1 269.07144 464] CT
0.149 GC
/Helvetica 15 F
GS
[1 0 0 1 0 0] CT
-17 15 moveto 
1 -1 scale
(1000) t 
GR
GR
GS
[1 0 0 1 353.85715 464] CT
0.149 GC
/Helvetica 15 F
GS
[1 0 0 1 0 0] CT
-17 15 moveto 
1 -1 scale
(1500) t 
GR
GR
GS
[1 0 0 1 438.64285 464] CT
0.149 GC
/Helvetica 15 F
GS
[1 0 0 1 0 0] CT
-17 15 moveto 
1 -1 scale
(2000) t 
GR
GR
GS
[1 0 0 1 523.42859 464] CT
0.149 GC
/Helvetica 15 F
GS
[1 0 0 1 0 0] CT
-17 15 moveto 
1 -1 scale
(2500) t 
GR
GR
GS
[1 0 0 1 608.21429 464] CT
0.149 GC
/Helvetica 15 F
GS
[1 0 0 1 0 0] CT
-17 15 moveto 
1 -1 scale
(3000) t 
GR
GR
GS
[1 0 0 1 693 464] CT
0.149 GC
/Helvetica 15 F
GS
[1 0 0 1 0 0] CT
-17 15 moveto 
1 -1 scale
(3500) t 
GR
GR
GS
[1 0 0 1 396.25027 483] CT
0.149 GC
/Helvetica 16.5 F
GS
[1 0 0 1 0 0] CT
-45.5 16 moveto 
1 -1 scale
(dimension d) t 
GR
GR
GS
0.149 GC
2 setlinecap
1 LJ
0.5 LW
N
99.5 459 M
99.5 38.5 L
S
GR
GS
0.149 GC
2 setlinecap
1 LJ
0.5 LW
N
99.5 458.344 M
105.435 458.344 L
S
GR
GS
0.149 GC
2 setlinecap
1 LJ
0.5 LW
N
99.5 401.576 M
105.435 401.576 L
S
GR
GS
0.149 GC
2 setlinecap
1 LJ
0.5 LW
N
99.5 344.809 M
105.435 344.809 L
S
GR
GS
0.149 GC
2 setlinecap
1 LJ
0.5 LW
N
99.5 288.041 M
105.435 288.041 L
S
GR
GS
0.149 GC
2 setlinecap
1 LJ
0.5 LW
N
99.5 231.274 M
105.435 231.274 L
S
GR
GS
0.149 GC
2 setlinecap
1 LJ
0.5 LW
N
99.5 174.506 M
105.435 174.506 L
S
GR
GS
0.149 GC
2 setlinecap
1 LJ
0.5 LW
N
99.5 117.739 M
105.435 117.739 L
S
GR
GS
0.149 GC
2 setlinecap
1 LJ
0.5 LW
N
99.5 60.971 M
105.435 60.971 L
S
GR
GS
[1 0 0 1 94.5 458.34375] CT
0.149 GC
/Helvetica 15 F
GS
[1 0 0 1 0 0] CT
-9 5.5 moveto 
1 -1 scale
(0) t 
GR
GR
GS
[1 0 0 1 94.5 401.57626] CT
0.149 GC
/Helvetica 15 F
GS
[1 0 0 1 0 0] CT
-17 5.5 moveto 
1 -1 scale
(10) t 
GR
GR
GS
[1 0 0 1 94.5 344.80875] CT
0.149 GC
/Helvetica 15 F
GS
[1 0 0 1 0 0] CT
-17 5.5 moveto 
1 -1 scale
(20) t 
GR
GR
GS
[1 0 0 1 94.5 288.04126] CT
0.149 GC
/Helvetica 15 F
GS
[1 0 0 1 0 0] CT
-17 5.5 moveto 
1 -1 scale
(30) t 
GR
GR
GS
[1 0 0 1 94.5 231.27376] CT
0.149 GC
/Helvetica 15 F
GS
[1 0 0 1 0 0] CT
-17 5.5 moveto 
1 -1 scale
(40) t 
GR
GR
GS
[1 0 0 1 94.5 174.50626] CT
0.149 GC
/Helvetica 15 F
GS
[1 0 0 1 0 0] CT
-17 5.5 moveto 
1 -1 scale
(50) t 
GR
GR
GS
[1 0 0 1 94.5 117.73875] CT
0.149 GC
/Helvetica 15 F
GS
[1 0 0 1 0 0] CT
-17 5.5 moveto 
1 -1 scale
(60) t 
GR
GR
GS
[1 0 0 1 94.5 60.97125] CT
0.149 GC
/Helvetica 15 F
GS
[1 0 0 1 0 0] CT
-17 5.5 moveto 
1 -1 scale
(70) t 
GR
GR
GS
[0 -1 1 0 74.5 248.74979] CT
0.149 GC
/Helvetica 16.5 F
GS
[1 0 0 1 0 0] CT
-105.5 -4 moveto 
1 -1 scale
(number of small eigenvalues) t 
GR
GR
GS
1 0 0 RC
1 LJ
2 LW
N
101.196 450.964 M
101.874 449.261 L
102.722 445.287 L
103.739 441.314 L
105.265 434.501 L
107.3 430.528 L
110.013 421.445 L
113.744 410.091 L
118.662 394.764 L
125.444 377.166 L
134.601 348.215 L
147.15 315.857 L
163.937 272.146 L
186.66 214.811 L
217.522 134.201 L
257.5 38.45 L
S
GR
GS
0 0 1 RC
1 LJ
2 LW
N
101.196 457.208 M
101.874 455.505 L
102.722 454.938 L
103.739 454.938 L
105.265 456.073 L
107.3 454.938 L
110.013 454.938 L
113.744 453.235 L
118.662 449.261 L
125.444 449.261 L
134.601 446.99 L
147.15 441.881 L
163.937 440.178 L
186.66 437.907 L
217.522 430.528 L
259.236 418.607 L
315.704 393.629 L
392.18 376.031 L
495.619 349.918 L
635.854 321.534 L
S
GR
GS
1 0 1 RC
1 LJ
2 LW
N
101.196 458.344 M
101.874 458.344 L
102.722 457.776 L
103.739 458.344 L
105.265 458.344 L
107.3 458.344 L
110.013 458.344 L
113.744 457.776 L
118.662 458.344 L
125.444 458.344 L
134.601 458.344 L
147.15 458.344 L
163.937 458.344 L
186.66 458.344 L
217.522 458.344 L
259.236 458.344 L
315.704 458.344 L
392.18 458.344 L
495.619 458.344 L
635.854 458.344 L
S
GR
GS
1 GC
N
641.5 125.5 M
641.5 72.5 L
503 72.5 L
503 125.5 L
cp
f
GR
GS
[1 0 0 1 540 82.5] CT
/Helvetica 13.5 F
GS
[1 0 0 1 0 0] CT
0 5 moveto 
1 -1 scale
(1xd, eigs < 1/10) t 
GR
GR
GS
1 0 0 RC
1 LJ
2 LW
N
507 82.5 M
537 82.5 L
S
GR
GS
[1 0 0 1 540 99] CT
/Helvetica 13.5 F
GS
[1 0 0 1 0 0] CT
0 5 moveto 
1 -1 scale
(2xd, eigs < 1/10) t 
GR
GR
GS
0 0 1 RC
1 LJ
2 LW
N
507 99 M
537 99 L
S
GR
GS
[1 0 0 1 540 115.5] CT
/Helvetica 13.5 F
GS
[1 0 0 1 0 0] CT
0 5 moveto 
1 -1 scale
(3xd, eigs < 1/10) t 
GR
GR
GS
1 0 1 RC
1 LJ
2 LW
N
507 115.5 M
537 115.5 L
S
GR
GS
0.149 GC
10.0 ML
0.5 LW
N
503 125.5 M
503 72.5 L
641.5 72.5 L
641.5 125.5 L
cp
S
GR
%%Trailer
%%Pages: 1
%%EOF
