%!PS-Adobe-3.0 EPSF-3.0
%%Creator: (MATLAB, The Mathworks, Inc. Version 9.4.0.813654 \(R2018a\). Operating System: Mac OS X)
%%Title: /Users/michal/Repositories/spectral/figs/logd-eigs.eps
%%CreationDate: 2018-09-23T10:56:33
%%Pages: (atend)
%%BoundingBox: 0 0 500 300
%%LanguageLevel: 3
%%EndComments
%%BeginProlog
%%BeginResource: procset (Apache XML Graphics Std ProcSet) 1.2 0
%%Version: 1.2 0
%%Copyright: (Copyright 2001-2003,2010 The Apache Software Foundation. License terms: http://www.apache.org/licenses/LICENSE-2.0)
/bd{bind def}bind def
/ld{load def}bd
/GR/grestore ld
/GS/gsave ld
/RM/rmoveto ld
/C/curveto ld
/t/show ld
/L/lineto ld
/ML/setmiterlimit ld
/CT/concat ld
/f/fill ld
/N/newpath ld
/S/stroke ld
/CC/setcmykcolor ld
/A/ashow ld
/cp/closepath ld
/RC/setrgbcolor ld
/LJ/setlinejoin ld
/GC/setgray ld
/LW/setlinewidth ld
/M/moveto ld
/re {4 2 roll M
1 index 0 rlineto
0 exch rlineto
neg 0 rlineto
cp } bd
/_ctm matrix def
/_tm matrix def
/BT { _ctm currentmatrix pop matrix _tm copy pop 0 0 moveto } bd
/ET { _ctm setmatrix } bd
/iTm { _ctm setmatrix _tm concat } bd
/Tm { _tm astore pop iTm 0 0 moveto } bd
/ux 0.0 def
/uy 0.0 def
/F {
  /Tp exch def
  /Tf exch def
  Tf findfont Tp scalefont setfont
  /cf Tf def  /cs Tp def
} bd
/ULS {currentpoint /uy exch def /ux exch def} bd
/ULE {
  /Tcx currentpoint pop def
  gsave
  newpath
  cf findfont cs scalefont dup
  /FontMatrix get 0 get /Ts exch def /FontInfo get dup
  /UnderlinePosition get Ts mul /To exch def
  /UnderlineThickness get Ts mul /Tt exch def
  ux uy To add moveto  Tcx uy To add lineto
  Tt setlinewidth stroke
  grestore
} bd
/OLE {
  /Tcx currentpoint pop def
  gsave
  newpath
  cf findfont cs scalefont dup
  /FontMatrix get 0 get /Ts exch def /FontInfo get dup
  /UnderlinePosition get Ts mul /To exch def
  /UnderlineThickness get Ts mul /Tt exch def
  ux uy To add cs add moveto Tcx uy To add cs add lineto
  Tt setlinewidth stroke
  grestore
} bd
/SOE {
  /Tcx currentpoint pop def
  gsave
  newpath
  cf findfont cs scalefont dup
  /FontMatrix get 0 get /Ts exch def /FontInfo get dup
  /UnderlinePosition get Ts mul /To exch def
  /UnderlineThickness get Ts mul /Tt exch def
  ux uy To add cs 10 mul 26 idiv add moveto Tcx uy To add cs 10 mul 26 idiv add lineto
  Tt setlinewidth stroke
  grestore
} bd
/QT {
/Y22 exch store
/X22 exch store
/Y21 exch store
/X21 exch store
currentpoint
/Y21 load 2 mul add 3 div exch
/X21 load 2 mul add 3 div exch
/X21 load 2 mul /X22 load add 3 div
/Y21 load 2 mul /Y22 load add 3 div
/X22 load /Y22 load curveto
} bd
/SSPD {
dup length /d exch dict def
{
/v exch def
/k exch def
currentpagedevice k known {
/cpdv currentpagedevice k get def
v cpdv ne {
/upd false def
/nullv v type /nulltype eq def
/nullcpdv cpdv type /nulltype eq def
nullv nullcpdv or
{
/upd true def
} {
/sametype v type cpdv type eq def
sametype {
v type /arraytype eq {
/vlen v length def
/cpdvlen cpdv length def
vlen cpdvlen eq {
0 1 vlen 1 sub {
/i exch def
/obj v i get def
/cpdobj cpdv i get def
obj cpdobj ne {
/upd true def
exit
} if
} for
} {
/upd true def
} ifelse
} {
v type /dicttype eq {
v {
/dv exch def
/dk exch def
/cpddv cpdv dk get def
dv cpddv ne {
/upd true def
exit
} if
} forall
} {
/upd true def
} ifelse
} ifelse
} if
} ifelse
upd true eq {
d k v put
} if
} if
} if
} forall
d length 0 gt {
d setpagedevice
} if
} bd
/RE { % /NewFontName [NewEncodingArray] /FontName RE -
  findfont dup length dict begin
  {
    1 index /FID ne
    {def} {pop pop} ifelse
  } forall
  /Encoding exch def
  /FontName 1 index def
  currentdict definefont pop
  end
} bind def
%%EndResource
%%BeginResource: procset (Apache XML Graphics EPS ProcSet) 1.0 0
%%Version: 1.0 0
%%Copyright: (Copyright 2002-2003 The Apache Software Foundation. License terms: http://www.apache.org/licenses/LICENSE-2.0)
/BeginEPSF { %def
/b4_Inc_state save def         % Save state for cleanup
/dict_count countdictstack def % Count objects on dict stack
/op_count count 1 sub def      % Count objects on operand stack
userdict begin                 % Push userdict on dict stack
/showpage { } def              % Redefine showpage, { } = null proc
0 setgray 0 setlinecap         % Prepare graphics state
1 setlinewidth 0 setlinejoin
10 setmiterlimit [ ] 0 setdash newpath
/languagelevel where           % If level not equal to 1 then
{pop languagelevel             % set strokeadjust and
1 ne                           % overprint to their defaults.
{false setstrokeadjust false setoverprint
} if
} if
} bd
/EndEPSF { %def
count op_count sub {pop} repeat            % Clean up stacks
countdictstack dict_count sub {end} repeat
b4_Inc_state restore
} bd
%%EndResource
%FOPBeginFontDict
%%IncludeResource: font Courier-Oblique
%%IncludeResource: font Courier-BoldOblique
%%IncludeResource: font Courier-Bold
%%IncludeResource: font ZapfDingbats
%%IncludeResource: font Symbol
%%IncludeResource: font Helvetica
%%IncludeResource: font Helvetica-Oblique
%%IncludeResource: font Helvetica-Bold
%%IncludeResource: font Helvetica-BoldOblique
%%IncludeResource: font Times-Roman
%%IncludeResource: font Times-Italic
%%IncludeResource: font Times-Bold
%%IncludeResource: font Times-BoldItalic
%%IncludeResource: font Courier
%FOPEndFontDict
%%BeginResource: encoding WinAnsiEncoding
/WinAnsiEncoding [
/.notdef /.notdef /.notdef /.notdef /.notdef
/.notdef /.notdef /.notdef /.notdef /.notdef
/.notdef /.notdef /.notdef /.notdef /.notdef
/.notdef /.notdef /.notdef /.notdef /.notdef
/.notdef /.notdef /.notdef /.notdef /.notdef
/.notdef /.notdef /.notdef /.notdef /.notdef
/.notdef /.notdef /space /exclam /quotedbl
/numbersign /dollar /percent /ampersand /quotesingle
/parenleft /parenright /asterisk /plus /comma
/hyphen /period /slash /zero /one
/two /three /four /five /six
/seven /eight /nine /colon /semicolon
/less /equal /greater /question /at
/A /B /C /D /E
/F /G /H /I /J
/K /L /M /N /O
/P /Q /R /S /T
/U /V /W /X /Y
/Z /bracketleft /backslash /bracketright /asciicircum
/underscore /quoteleft /a /b /c
/d /e /f /g /h
/i /j /k /l /m
/n /o /p /q /r
/s /t /u /v /w
/x /y /z /braceleft /bar
/braceright /asciitilde /bullet /Euro /bullet
/quotesinglbase /florin /quotedblbase /ellipsis /dagger
/daggerdbl /circumflex /perthousand /Scaron /guilsinglleft
/OE /bullet /Zcaron /bullet /bullet
/quoteleft /quoteright /quotedblleft /quotedblright /bullet
/endash /emdash /asciitilde /trademark /scaron
/guilsinglright /oe /bullet /zcaron /Ydieresis
/space /exclamdown /cent /sterling /currency
/yen /brokenbar /section /dieresis /copyright
/ordfeminine /guillemotleft /logicalnot /sfthyphen /registered
/macron /degree /plusminus /twosuperior /threesuperior
/acute /mu /paragraph /middot /cedilla
/onesuperior /ordmasculine /guillemotright /onequarter /onehalf
/threequarters /questiondown /Agrave /Aacute /Acircumflex
/Atilde /Adieresis /Aring /AE /Ccedilla
/Egrave /Eacute /Ecircumflex /Edieresis /Igrave
/Iacute /Icircumflex /Idieresis /Eth /Ntilde
/Ograve /Oacute /Ocircumflex /Otilde /Odieresis
/multiply /Oslash /Ugrave /Uacute /Ucircumflex
/Udieresis /Yacute /Thorn /germandbls /agrave
/aacute /acircumflex /atilde /adieresis /aring
/ae /ccedilla /egrave /eacute /ecircumflex
/edieresis /igrave /iacute /icircumflex /idieresis
/eth /ntilde /ograve /oacute /ocircumflex
/otilde /odieresis /divide /oslash /ugrave
/uacute /ucircumflex /udieresis /yacute /thorn
/ydieresis
] def
%%EndResource
%FOPBeginFontReencode
/Courier-Oblique findfont
dup length dict begin
  {1 index /FID ne {def} {pop pop} ifelse} forall
  /Encoding WinAnsiEncoding def
  currentdict
end
/Courier-Oblique exch definefont pop
/Courier-BoldOblique findfont
dup length dict begin
  {1 index /FID ne {def} {pop pop} ifelse} forall
  /Encoding WinAnsiEncoding def
  currentdict
end
/Courier-BoldOblique exch definefont pop
/Courier-Bold findfont
dup length dict begin
  {1 index /FID ne {def} {pop pop} ifelse} forall
  /Encoding WinAnsiEncoding def
  currentdict
end
/Courier-Bold exch definefont pop
/Helvetica findfont
dup length dict begin
  {1 index /FID ne {def} {pop pop} ifelse} forall
  /Encoding WinAnsiEncoding def
  currentdict
end
/Helvetica exch definefont pop
/Helvetica-Oblique findfont
dup length dict begin
  {1 index /FID ne {def} {pop pop} ifelse} forall
  /Encoding WinAnsiEncoding def
  currentdict
end
/Helvetica-Oblique exch definefont pop
/Helvetica-Bold findfont
dup length dict begin
  {1 index /FID ne {def} {pop pop} ifelse} forall
  /Encoding WinAnsiEncoding def
  currentdict
end
/Helvetica-Bold exch definefont pop
/Helvetica-BoldOblique findfont
dup length dict begin
  {1 index /FID ne {def} {pop pop} ifelse} forall
  /Encoding WinAnsiEncoding def
  currentdict
end
/Helvetica-BoldOblique exch definefont pop
/Times-Roman findfont
dup length dict begin
  {1 index /FID ne {def} {pop pop} ifelse} forall
  /Encoding WinAnsiEncoding def
  currentdict
end
/Times-Roman exch definefont pop
/Times-Italic findfont
dup length dict begin
  {1 index /FID ne {def} {pop pop} ifelse} forall
  /Encoding WinAnsiEncoding def
  currentdict
end
/Times-Italic exch definefont pop
/Times-Bold findfont
dup length dict begin
  {1 index /FID ne {def} {pop pop} ifelse} forall
  /Encoding WinAnsiEncoding def
  currentdict
end
/Times-Bold exch definefont pop
/Times-BoldItalic findfont
dup length dict begin
  {1 index /FID ne {def} {pop pop} ifelse} forall
  /Encoding WinAnsiEncoding def
  currentdict
end
/Times-BoldItalic exch definefont pop
/Courier findfont
dup length dict begin
  {1 index /FID ne {def} {pop pop} ifelse} forall
  /Encoding WinAnsiEncoding def
  currentdict
end
/Courier exch definefont pop
%FOPEndFontReencode
%%EndProlog
%%Page: 1 1
%%PageBoundingBox: 0 0 500 300
%%BeginPageSetup
[1 0 0 -1 0 300] CT
%%EndPageSetup
GS
1 GC
N
0 0 500 300 re
f
GR
GS
1 GC
N
0 0 500 300 re
f
GR
GS
1 GC
N
65 256 M
452.5 256 L
452.5 22.5 L
65 22.5 L
cp
f
GR
GS
0.149 GC
2 setlinecap
1 LJ
0.5 LW
N
65 256 M
452.5 256 L
S
GR
GS
0.149 GC
2 setlinecap
1 LJ
0.5 LW
N
65 256 M
65 252.125 L
S
GR
GS
0.149 GC
2 setlinecap
1 LJ
0.5 LW
N
161.875 256 M
161.875 252.125 L
S
GR
GS
0.149 GC
2 setlinecap
1 LJ
0.5 LW
N
258.75 256 M
258.75 252.125 L
S
GR
GS
0.149 GC
2 setlinecap
1 LJ
0.5 LW
N
355.625 256 M
355.625 252.125 L
S
GR
GS
0.149 GC
2 setlinecap
1 LJ
0.5 LW
N
452.5 256 M
452.5 252.125 L
S
GR
GS
[1 0 0 1 65 261] CT
0.149 GC
/Helvetica 15 F
GS
[1 0 0 1 0 0] CT
-4.5 15 moveto 
1 -1 scale
(0) t 
GR
GR
GS
[1 0 0 1 161.875 261] CT
0.149 GC
/Helvetica 15 F
GS
[1 0 0 1 0 0] CT
-13 15 moveto 
1 -1 scale
(200) t 
GR
GR
GS
[1 0 0 1 258.75 261] CT
0.149 GC
/Helvetica 15 F
GS
[1 0 0 1 0 0] CT
-13 15 moveto 
1 -1 scale
(400) t 
GR
GR
GS
[1 0 0 1 355.625 261] CT
0.149 GC
/Helvetica 15 F
GS
[1 0 0 1 0 0] CT
-13 15 moveto 
1 -1 scale
(600) t 
GR
GR
GS
[1 0 0 1 452.5 261] CT
0.149 GC
/Helvetica 15 F
GS
[1 0 0 1 0 0] CT
-13 15 moveto 
1 -1 scale
(800) t 
GR
GR
GS
[1 0 0 1 258.75018 280] CT
0.149 GC
/Helvetica 16.5 F
GS
[1 0 0 1 0 0] CT
-45.5 16 moveto 
1 -1 scale
(dimension d) t 
GR
GR
GS
0.149 GC
2 setlinecap
1 LJ
0.5 LW
N
65 256 M
65 22.5 L
S
GR
GS
0.149 GC
2 setlinecap
1 LJ
0.5 LW
N
65 255.563 M
68.875 255.563 L
S
GR
GS
0.149 GC
2 setlinecap
1 LJ
0.5 LW
N
65 218.036 M
68.875 218.036 L
S
GR
GS
0.149 GC
2 setlinecap
1 LJ
0.5 LW
N
65 180.509 M
68.875 180.509 L
S
GR
GS
0.149 GC
2 setlinecap
1 LJ
0.5 LW
N
65 142.982 M
68.875 142.982 L
S
GR
GS
0.149 GC
2 setlinecap
1 LJ
0.5 LW
N
65 105.455 M
68.875 105.455 L
S
GR
GS
0.149 GC
2 setlinecap
1 LJ
0.5 LW
N
65 67.929 M
68.875 67.929 L
S
GR
GS
0.149 GC
2 setlinecap
1 LJ
0.5 LW
N
65 30.402 M
68.875 30.402 L
S
GR
GS
[1 0 0 1 60 255.5625] CT
0.149 GC
/Helvetica 15 F
GS
[1 0 0 1 0 0] CT
-9 5.5 moveto 
1 -1 scale
(0) t 
GR
GR
GS
[1 0 0 1 60 218.03572] CT
0.149 GC
/Helvetica 15 F
GS
[1 0 0 1 0 0] CT
-17 5.5 moveto 
1 -1 scale
(10) t 
GR
GR
GS
[1 0 0 1 60 180.50893] CT
0.149 GC
/Helvetica 15 F
GS
[1 0 0 1 0 0] CT
-17 5.5 moveto 
1 -1 scale
(20) t 
GR
GR
GS
[1 0 0 1 60 142.98215] CT
0.149 GC
/Helvetica 15 F
GS
[1 0 0 1 0 0] CT
-17 5.5 moveto 
1 -1 scale
(30) t 
GR
GR
GS
[1 0 0 1 60 105.45536] CT
0.149 GC
/Helvetica 15 F
GS
[1 0 0 1 0 0] CT
-17 5.5 moveto 
1 -1 scale
(40) t 
GR
GR
GS
[1 0 0 1 60 67.92857] CT
0.149 GC
/Helvetica 15 F
GS
[1 0 0 1 0 0] CT
-17 5.5 moveto 
1 -1 scale
(50) t 
GR
GR
GS
[1 0 0 1 60 30.40178] CT
0.149 GC
/Helvetica 15 F
GS
[1 0 0 1 0 0] CT
-17 5.5 moveto 
1 -1 scale
(60) t 
GR
GR
GS
[0 -1 1 0 40 139.24988] CT
0.149 GC
/Helvetica 16.5 F
GS
[1 0 0 1 0 0] CT
-105.5 -4 moveto 
1 -1 scale
(number of small eigenvalues) t 
GR
GR
GS
1 0 0 RC
1 LJ
2 LW
N
69.844 246.181 M
71.297 243.179 L
72.75 241.302 L
74.688 236.799 L
77.594 232.671 L
80.5 228.543 L
84.375 220.663 L
89.703 212.782 L
96 203.4 L
103.75 192.142 L
113.438 177.507 L
126.031 159.119 L
142.016 135.477 L
161.875 109.959 L
187.063 73.558 L
218.547 30.402 L
224.585 22.472 L
S
GR
GS
0 0 1 RC
1 LJ
2 LW
N
69.844 245.806 M
71.297 245.806 L
72.75 243.929 L
74.688 240.552 L
77.594 240.177 L
80.5 237.925 L
84.375 234.923 L
89.703 232.296 L
96 223.665 L
103.75 220.663 L
113.438 213.533 L
126.031 209.405 L
142.016 197.771 L
161.875 185.763 L
187.063 176.756 L
218.547 160.62 L
258.266 142.982 L
308.156 126.846 L
370.641 97.575 L
450.078 70.555 L
S
GR
GS
1 0 1 RC
1 LJ
2 LW
N
69.844 252.936 M
71.297 252.185 L
72.75 251.059 L
74.688 251.435 L
77.594 252.56 L
80.5 251.435 L
84.375 250.684 L
89.703 251.059 L
96 249.933 L
103.75 250.684 L
113.438 249.183 L
126.031 251.059 L
142.016 251.059 L
161.875 250.684 L
187.063 252.936 L
218.547 253.311 L
258.266 253.311 L
308.156 255.187 L
370.641 255.563 L
450.078 255.563 L
S
GR
GS
1 GC
N
396.5 76 M
396.5 23 L
239.5 23 L
239.5 76 L
cp
f
GR
GS
[1 0 0 1 276.5 33] CT
/Helvetica 13.5 F
GS
[1 0 0 1 0 0] CT
0 5 moveto 
1 -1 scale
(1xd, eigs < 1/log\(d\)) t 
GR
GR
GS
1 0 0 RC
1 LJ
2 LW
N
243.5 33 M
273.5 33 L
S
GR
GS
[1 0 0 1 276.5 49.5] CT
/Helvetica 13.5 F
GS
[1 0 0 1 0 0] CT
0 5 moveto 
1 -1 scale
(2xd, eigs < 1/log\(d\)) t 
GR
GR
GS
0 0 1 RC
1 LJ
2 LW
N
243.5 49.5 M
273.5 49.5 L
S
GR
GS
[1 0 0 1 276.5 66] CT
/Helvetica 13.5 F
GS
[1 0 0 1 0 0] CT
0 5 moveto 
1 -1 scale
(3xd, eigs < 1/log\(d\)) t 
GR
GR
GS
1 0 1 RC
1 LJ
2 LW
N
243.5 66 M
273.5 66 L
S
GR
GS
0.149 GC
10.0 ML
0.5 LW
N
239.5 76 M
239.5 23 L
396.5 23 L
396.5 76 L
cp
S
GR
%%Trailer
%%Pages: 1
%%EOF
