%!PS-Adobe-3.0 EPSF-3.0
%%Creator: (MATLAB, The Mathworks, Inc. Version 9.4.0.813654 \(R2018a\). Operating System: Mac OS X)
%%Title: /Users/michal/Repositories/spectral/figs/min-eig-adaptive.eps
%%CreationDate: 2019-02-19T10:50:37
%%Pages: (atend)
%%BoundingBox: 0 0 800 500
%%LanguageLevel: 3
%%EndComments
%%BeginProlog
%%BeginResource: procset (Apache XML Graphics Std ProcSet) 1.2 0
%%Version: 1.2 0
%%Copyright: (Copyright 2001-2003,2010 The Apache Software Foundation. License terms: http://www.apache.org/licenses/LICENSE-2.0)
/bd{bind def}bind def
/ld{load def}bd
/GR/grestore ld
/GS/gsave ld
/RM/rmoveto ld
/C/curveto ld
/t/show ld
/L/lineto ld
/ML/setmiterlimit ld
/CT/concat ld
/f/fill ld
/N/newpath ld
/S/stroke ld
/CC/setcmykcolor ld
/A/ashow ld
/cp/closepath ld
/RC/setrgbcolor ld
/LJ/setlinejoin ld
/GC/setgray ld
/LW/setlinewidth ld
/M/moveto ld
/re {4 2 roll M
1 index 0 rlineto
0 exch rlineto
neg 0 rlineto
cp } bd
/_ctm matrix def
/_tm matrix def
/BT { _ctm currentmatrix pop matrix _tm copy pop 0 0 moveto } bd
/ET { _ctm setmatrix } bd
/iTm { _ctm setmatrix _tm concat } bd
/Tm { _tm astore pop iTm 0 0 moveto } bd
/ux 0.0 def
/uy 0.0 def
/F {
  /Tp exch def
  /Tf exch def
  Tf findfont Tp scalefont setfont
  /cf Tf def  /cs Tp def
} bd
/ULS {currentpoint /uy exch def /ux exch def} bd
/ULE {
  /Tcx currentpoint pop def
  gsave
  newpath
  cf findfont cs scalefont dup
  /FontMatrix get 0 get /Ts exch def /FontInfo get dup
  /UnderlinePosition get Ts mul /To exch def
  /UnderlineThickness get Ts mul /Tt exch def
  ux uy To add moveto  Tcx uy To add lineto
  Tt setlinewidth stroke
  grestore
} bd
/OLE {
  /Tcx currentpoint pop def
  gsave
  newpath
  cf findfont cs scalefont dup
  /FontMatrix get 0 get /Ts exch def /FontInfo get dup
  /UnderlinePosition get Ts mul /To exch def
  /UnderlineThickness get Ts mul /Tt exch def
  ux uy To add cs add moveto Tcx uy To add cs add lineto
  Tt setlinewidth stroke
  grestore
} bd
/SOE {
  /Tcx currentpoint pop def
  gsave
  newpath
  cf findfont cs scalefont dup
  /FontMatrix get 0 get /Ts exch def /FontInfo get dup
  /UnderlinePosition get Ts mul /To exch def
  /UnderlineThickness get Ts mul /Tt exch def
  ux uy To add cs 10 mul 26 idiv add moveto Tcx uy To add cs 10 mul 26 idiv add lineto
  Tt setlinewidth stroke
  grestore
} bd
/QT {
/Y22 exch store
/X22 exch store
/Y21 exch store
/X21 exch store
currentpoint
/Y21 load 2 mul add 3 div exch
/X21 load 2 mul add 3 div exch
/X21 load 2 mul /X22 load add 3 div
/Y21 load 2 mul /Y22 load add 3 div
/X22 load /Y22 load curveto
} bd
/SSPD {
dup length /d exch dict def
{
/v exch def
/k exch def
currentpagedevice k known {
/cpdv currentpagedevice k get def
v cpdv ne {
/upd false def
/nullv v type /nulltype eq def
/nullcpdv cpdv type /nulltype eq def
nullv nullcpdv or
{
/upd true def
} {
/sametype v type cpdv type eq def
sametype {
v type /arraytype eq {
/vlen v length def
/cpdvlen cpdv length def
vlen cpdvlen eq {
0 1 vlen 1 sub {
/i exch def
/obj v i get def
/cpdobj cpdv i get def
obj cpdobj ne {
/upd true def
exit
} if
} for
} {
/upd true def
} ifelse
} {
v type /dicttype eq {
v {
/dv exch def
/dk exch def
/cpddv cpdv dk get def
dv cpddv ne {
/upd true def
exit
} if
} forall
} {
/upd true def
} ifelse
} ifelse
} if
} ifelse
upd true eq {
d k v put
} if
} if
} if
} forall
d length 0 gt {
d setpagedevice
} if
} bd
/RE { % /NewFontName [NewEncodingArray] /FontName RE -
  findfont dup length dict begin
  {
    1 index /FID ne
    {def} {pop pop} ifelse
  } forall
  /Encoding exch def
  /FontName 1 index def
  currentdict definefont pop
  end
} bind def
%%EndResource
%%BeginResource: procset (Apache XML Graphics EPS ProcSet) 1.0 0
%%Version: 1.0 0
%%Copyright: (Copyright 2002-2003 The Apache Software Foundation. License terms: http://www.apache.org/licenses/LICENSE-2.0)
/BeginEPSF { %def
/b4_Inc_state save def         % Save state for cleanup
/dict_count countdictstack def % Count objects on dict stack
/op_count count 1 sub def      % Count objects on operand stack
userdict begin                 % Push userdict on dict stack
/showpage { } def              % Redefine showpage, { } = null proc
0 setgray 0 setlinecap         % Prepare graphics state
1 setlinewidth 0 setlinejoin
10 setmiterlimit [ ] 0 setdash newpath
/languagelevel where           % If level not equal to 1 then
{pop languagelevel             % set strokeadjust and
1 ne                           % overprint to their defaults.
{false setstrokeadjust false setoverprint
} if
} if
} bd
/EndEPSF { %def
count op_count sub {pop} repeat            % Clean up stacks
countdictstack dict_count sub {end} repeat
b4_Inc_state restore
} bd
%%EndResource
%FOPBeginFontDict
%%IncludeResource: font Courier-Oblique
%%IncludeResource: font Courier-BoldOblique
%%IncludeResource: font Courier-Bold
%%IncludeResource: font ZapfDingbats
%%IncludeResource: font Symbol
%%IncludeResource: font Helvetica
%%IncludeResource: font Helvetica-Oblique
%%IncludeResource: font Helvetica-Bold
%%IncludeResource: font Helvetica-BoldOblique
%%IncludeResource: font Times-Roman
%%IncludeResource: font Times-Italic
%%IncludeResource: font Times-Bold
%%IncludeResource: font Times-BoldItalic
%%IncludeResource: font Courier
%FOPEndFontDict
%%BeginResource: encoding WinAnsiEncoding
/WinAnsiEncoding [
/.notdef /.notdef /.notdef /.notdef /.notdef
/.notdef /.notdef /.notdef /.notdef /.notdef
/.notdef /.notdef /.notdef /.notdef /.notdef
/.notdef /.notdef /.notdef /.notdef /.notdef
/.notdef /.notdef /.notdef /.notdef /.notdef
/.notdef /.notdef /.notdef /.notdef /.notdef
/.notdef /.notdef /space /exclam /quotedbl
/numbersign /dollar /percent /ampersand /quotesingle
/parenleft /parenright /asterisk /plus /comma
/hyphen /period /slash /zero /one
/two /three /four /five /six
/seven /eight /nine /colon /semicolon
/less /equal /greater /question /at
/A /B /C /D /E
/F /G /H /I /J
/K /L /M /N /O
/P /Q /R /S /T
/U /V /W /X /Y
/Z /bracketleft /backslash /bracketright /asciicircum
/underscore /quoteleft /a /b /c
/d /e /f /g /h
/i /j /k /l /m
/n /o /p /q /r
/s /t /u /v /w
/x /y /z /braceleft /bar
/braceright /asciitilde /bullet /Euro /bullet
/quotesinglbase /florin /quotedblbase /ellipsis /dagger
/daggerdbl /circumflex /perthousand /Scaron /guilsinglleft
/OE /bullet /Zcaron /bullet /bullet
/quoteleft /quoteright /quotedblleft /quotedblright /bullet
/endash /emdash /asciitilde /trademark /scaron
/guilsinglright /oe /bullet /zcaron /Ydieresis
/space /exclamdown /cent /sterling /currency
/yen /brokenbar /section /dieresis /copyright
/ordfeminine /guillemotleft /logicalnot /sfthyphen /registered
/macron /degree /plusminus /twosuperior /threesuperior
/acute /mu /paragraph /middot /cedilla
/onesuperior /ordmasculine /guillemotright /onequarter /onehalf
/threequarters /questiondown /Agrave /Aacute /Acircumflex
/Atilde /Adieresis /Aring /AE /Ccedilla
/Egrave /Eacute /Ecircumflex /Edieresis /Igrave
/Iacute /Icircumflex /Idieresis /Eth /Ntilde
/Ograve /Oacute /Ocircumflex /Otilde /Odieresis
/multiply /Oslash /Ugrave /Uacute /Ucircumflex
/Udieresis /Yacute /Thorn /germandbls /agrave
/aacute /acircumflex /atilde /adieresis /aring
/ae /ccedilla /egrave /eacute /ecircumflex
/edieresis /igrave /iacute /icircumflex /idieresis
/eth /ntilde /ograve /oacute /ocircumflex
/otilde /odieresis /divide /oslash /ugrave
/uacute /ucircumflex /udieresis /yacute /thorn
/ydieresis
] def
%%EndResource
%FOPBeginFontReencode
/Courier-Oblique findfont
dup length dict begin
  {1 index /FID ne {def} {pop pop} ifelse} forall
  /Encoding WinAnsiEncoding def
  currentdict
end
/Courier-Oblique exch definefont pop
/Courier-BoldOblique findfont
dup length dict begin
  {1 index /FID ne {def} {pop pop} ifelse} forall
  /Encoding WinAnsiEncoding def
  currentdict
end
/Courier-BoldOblique exch definefont pop
/Courier-Bold findfont
dup length dict begin
  {1 index /FID ne {def} {pop pop} ifelse} forall
  /Encoding WinAnsiEncoding def
  currentdict
end
/Courier-Bold exch definefont pop
/Helvetica findfont
dup length dict begin
  {1 index /FID ne {def} {pop pop} ifelse} forall
  /Encoding WinAnsiEncoding def
  currentdict
end
/Helvetica exch definefont pop
/Helvetica-Oblique findfont
dup length dict begin
  {1 index /FID ne {def} {pop pop} ifelse} forall
  /Encoding WinAnsiEncoding def
  currentdict
end
/Helvetica-Oblique exch definefont pop
/Helvetica-Bold findfont
dup length dict begin
  {1 index /FID ne {def} {pop pop} ifelse} forall
  /Encoding WinAnsiEncoding def
  currentdict
end
/Helvetica-Bold exch definefont pop
/Helvetica-BoldOblique findfont
dup length dict begin
  {1 index /FID ne {def} {pop pop} ifelse} forall
  /Encoding WinAnsiEncoding def
  currentdict
end
/Helvetica-BoldOblique exch definefont pop
/Times-Roman findfont
dup length dict begin
  {1 index /FID ne {def} {pop pop} ifelse} forall
  /Encoding WinAnsiEncoding def
  currentdict
end
/Times-Roman exch definefont pop
/Times-Italic findfont
dup length dict begin
  {1 index /FID ne {def} {pop pop} ifelse} forall
  /Encoding WinAnsiEncoding def
  currentdict
end
/Times-Italic exch definefont pop
/Times-Bold findfont
dup length dict begin
  {1 index /FID ne {def} {pop pop} ifelse} forall
  /Encoding WinAnsiEncoding def
  currentdict
end
/Times-Bold exch definefont pop
/Times-BoldItalic findfont
dup length dict begin
  {1 index /FID ne {def} {pop pop} ifelse} forall
  /Encoding WinAnsiEncoding def
  currentdict
end
/Times-BoldItalic exch definefont pop
/Courier findfont
dup length dict begin
  {1 index /FID ne {def} {pop pop} ifelse} forall
  /Encoding WinAnsiEncoding def
  currentdict
end
/Courier exch definefont pop
%FOPEndFontReencode
%%EndProlog
%%Page: 1 1
%%PageBoundingBox: 0 0 800 500
%%BeginPageSetup
[1 0 0 -1 0 500] CT
%%EndPageSetup
GS
1 GC
N
0 0 800 500 re
f
GR
GS
1 GC
N
0 0 800 500 re
f
GR
GS
1 GC
N
104 208 M
371.5 208 L
371.5 37.5 L
104 37.5 L
cp
f
GR
GS
0.149 GC
2 setlinecap
1 LJ
0.5 LW
N
104 208 M
371.5 208 L
S
GR
GS
0.149 GC
2 setlinecap
1 LJ
0.5 LW
N
104 208 M
104 205.325 L
S
GR
GS
0.149 GC
2 setlinecap
1 LJ
0.5 LW
N
157.5 208 M
157.5 205.325 L
S
GR
GS
0.149 GC
2 setlinecap
1 LJ
0.5 LW
N
211 208 M
211 205.325 L
S
GR
GS
0.149 GC
2 setlinecap
1 LJ
0.5 LW
N
264.5 208 M
264.5 205.325 L
S
GR
GS
0.149 GC
2 setlinecap
1 LJ
0.5 LW
N
318 208 M
318 205.325 L
S
GR
GS
0.149 GC
2 setlinecap
1 LJ
0.5 LW
N
371.5 208 M
371.5 205.325 L
S
GR
GS
[1 0 0 1 104 212.56667] CT
0.149 GC
/Helvetica 14.5 F
GS
[1 0 0 1 0 0] CT
-12.5 14 moveto 
1 -1 scale
(100) t 
GR
GR
GS
[1 0 0 1 157.5 212.56667] CT
0.149 GC
/Helvetica 14.5 F
GS
[1 0 0 1 0 0] CT
-12.5 14 moveto 
1 -1 scale
(200) t 
GR
GR
GS
[1 0 0 1 211 212.56667] CT
0.149 GC
/Helvetica 14.5 F
GS
[1 0 0 1 0 0] CT
-12.5 14 moveto 
1 -1 scale
(300) t 
GR
GR
GS
[1 0 0 1 264.5 212.56667] CT
0.149 GC
/Helvetica 14.5 F
GS
[1 0 0 1 0 0] CT
-12.5 14 moveto 
1 -1 scale
(400) t 
GR
GR
GS
[1 0 0 1 318 212.56667] CT
0.149 GC
/Helvetica 14.5 F
GS
[1 0 0 1 0 0] CT
-12.5 14 moveto 
1 -1 scale
(500) t 
GR
GR
GS
[1 0 0 1 371.5 212.56667] CT
0.149 GC
/Helvetica 14.5 F
GS
[1 0 0 1 0 0] CT
-12.5 14 moveto 
1 -1 scale
(600) t 
GR
GR
GS
[1 0 0 1 237.75014 230.90001] CT
0.149 GC
/Helvetica 15.95 F
GS
[1 0 0 1 0 0] CT
-44 16 moveto 
1 -1 scale
(dimension d) t 
GR
GR
GS
0.149 GC
2 setlinecap
1 LJ
0.5 LW
N
104 208 M
104 37.5 L
S
GR
GS
0.149 GC
2 setlinecap
1 LJ
0.5 LW
N
104 208 M
106.675 208 L
S
GR
GS
0.149 GC
2 setlinecap
1 LJ
0.5 LW
N
104 165.375 M
106.675 165.375 L
S
GR
GS
0.149 GC
2 setlinecap
1 LJ
0.5 LW
N
104 122.75 M
106.675 122.75 L
S
GR
GS
0.149 GC
2 setlinecap
1 LJ
0.5 LW
N
104 80.125 M
106.675 80.125 L
S
GR
GS
0.149 GC
2 setlinecap
1 LJ
0.5 LW
N
104 37.5 M
106.675 37.5 L
S
GR
GS
[1 0 0 1 99.43333 208.00002] CT
0.149 GC
/Helvetica 14.5 F
GS
[1 0 0 1 0 0] CT
-21 5 moveto 
1 -1 scale
(1.8) t 
GR
GR
GS
[1 0 0 1 99.43333 165.375] CT
0.149 GC
/Helvetica 14.5 F
GS
[1 0 0 1 0 0] CT
-9 5 moveto 
1 -1 scale
(2) t 
GR
GR
GS
[1 0 0 1 99.43333 122.74999] CT
0.149 GC
/Helvetica 14.5 F
GS
[1 0 0 1 0 0] CT
-21 5 moveto 
1 -1 scale
(2.2) t 
GR
GR
GS
[1 0 0 1 99.43333 80.12498] CT
0.149 GC
/Helvetica 14.5 F
GS
[1 0 0 1 0 0] CT
-21 5 moveto 
1 -1 scale
(2.4) t 
GR
GR
GS
[1 0 0 1 99.43333 37.50002] CT
0.149 GC
/Helvetica 14.5 F
GS
[1 0 0 1 0 0] CT
-21 5 moveto 
1 -1 scale
(2.6) t 
GR
GR
GS
[0 -1 1 0 76.26667 122.74994] CT
0.149 GC
/Helvetica 15.95 F
GS
[1 0 0 1 0 0] CT
-45.5 -4 moveto 
1 -1 scale
(number of ...) t 
GR
GR
GS
[1 0 0 1 237.75023 35.50627] CT
/Helvetica-Bold 15.95 F
GS
[1 0 0 1 0 0] CT
-40.5 -4 moveto 
1 -1 scale
(n = d + d/8) t 
GR
GR
GS
0 0 1 RC
[2 2] 0 setdash
2 LJ
2 LW
N
104 157.084 M
109.35 58.66 L
115.235 176.209 L
121.655 187.93 L
128.61 118.179 L
136.635 127.243 L
145.195 140.554 L
154.29 177.937 L
164.455 165.743 L
175.69 192.316 L
187.995 90.847 L
201.905 138.171 L
216.885 45.946 L
232.935 191.221 L
251.125 160.138 L
270.92 177.363 L
292.855 113.803 L
316.395 143.764 L
343.145 120.728 L
371.5 82.257 L
S
GR
GS
1 GC
N
357.5 61.5 M
357.5 42 L
252.5 42 L
252.5 61.5 L
cp
f
GR
GS
[1 0 0 1 289.5 51.75] CT
/Helvetica 13.05 F
GS
[1 0 0 1 0 0] CT
0 5 moveto 
1 -1 scale
(1/min\(eigs\)) t 
GR
GR
GS
0 0 1 RC
[2 2] 0 setdash
2 LJ
2 LW
N
256.5 51.75 M
286.5 51.75 L
S
GR
GS
0.149 GC
10.0 ML
0.5 LW
N
252.5 61.5 M
252.5 42 L
357.5 42 L
357.5 61.5 L
cp
S
GR
GS
1 GC
N
456.5 208 M
724 208 L
724 37.5 L
456.5 37.5 L
cp
f
GR
GS
0.149 GC
2 setlinecap
1 LJ
0.5 LW
N
456.5 208 M
724 208 L
S
GR
GS
0.149 GC
2 setlinecap
1 LJ
0.5 LW
N
456.5 208 M
456.5 205.325 L
S
GR
GS
0.149 GC
2 setlinecap
1 LJ
0.5 LW
N
510 208 M
510 205.325 L
S
GR
GS
0.149 GC
2 setlinecap
1 LJ
0.5 LW
N
563.5 208 M
563.5 205.325 L
S
GR
GS
0.149 GC
2 setlinecap
1 LJ
0.5 LW
N
617 208 M
617 205.325 L
S
GR
GS
0.149 GC
2 setlinecap
1 LJ
0.5 LW
N
670.5 208 M
670.5 205.325 L
S
GR
GS
0.149 GC
2 setlinecap
1 LJ
0.5 LW
N
724 208 M
724 205.325 L
S
GR
GS
[1 0 0 1 456.5 212.56667] CT
0.149 GC
/Helvetica 14.5 F
GS
[1 0 0 1 0 0] CT
-12.5 14 moveto 
1 -1 scale
(100) t 
GR
GR
GS
[1 0 0 1 510 212.56667] CT
0.149 GC
/Helvetica 14.5 F
GS
[1 0 0 1 0 0] CT
-12.5 14 moveto 
1 -1 scale
(200) t 
GR
GR
GS
[1 0 0 1 563.5 212.56667] CT
0.149 GC
/Helvetica 14.5 F
GS
[1 0 0 1 0 0] CT
-12.5 14 moveto 
1 -1 scale
(300) t 
GR
GR
GS
[1 0 0 1 617 212.56667] CT
0.149 GC
/Helvetica 14.5 F
GS
[1 0 0 1 0 0] CT
-12.5 14 moveto 
1 -1 scale
(400) t 
GR
GR
GS
[1 0 0 1 670.5 212.56667] CT
0.149 GC
/Helvetica 14.5 F
GS
[1 0 0 1 0 0] CT
-12.5 14 moveto 
1 -1 scale
(500) t 
GR
GR
GS
[1 0 0 1 724 212.56667] CT
0.149 GC
/Helvetica 14.5 F
GS
[1 0 0 1 0 0] CT
-12.5 14 moveto 
1 -1 scale
(600) t 
GR
GR
GS
[1 0 0 1 590.25012 230.89999] CT
0.149 GC
/Helvetica 15.95 F
GS
[1 0 0 1 0 0] CT
-44 16 moveto 
1 -1 scale
(dimension d) t 
GR
GR
GS
0.149 GC
2 setlinecap
1 LJ
0.5 LW
N
456.5 208 M
456.5 37.5 L
S
GR
GS
0.149 GC
2 setlinecap
1 LJ
0.5 LW
N
456.5 208 M
459.175 208 L
S
GR
GS
0.149 GC
2 setlinecap
1 LJ
0.5 LW
N
456.5 165.375 M
459.175 165.375 L
S
GR
GS
0.149 GC
2 setlinecap
1 LJ
0.5 LW
N
456.5 122.75 M
459.175 122.75 L
S
GR
GS
0.149 GC
2 setlinecap
1 LJ
0.5 LW
N
456.5 80.125 M
459.175 80.125 L
S
GR
GS
0.149 GC
2 setlinecap
1 LJ
0.5 LW
N
456.5 37.5 M
459.175 37.5 L
S
GR
GS
[1 0 0 1 451.93332 208] CT
0.149 GC
/Helvetica 14.5 F
GS
[1 0 0 1 0 0] CT
-9 5 moveto 
1 -1 scale
(3) t 
GR
GR
GS
[1 0 0 1 451.93332 165.375] CT
0.149 GC
/Helvetica 14.5 F
GS
[1 0 0 1 0 0] CT
-9 5 moveto 
1 -1 scale
(4) t 
GR
GR
GS
[1 0 0 1 451.93332 122.75] CT
0.149 GC
/Helvetica 14.5 F
GS
[1 0 0 1 0 0] CT
-9 5 moveto 
1 -1 scale
(5) t 
GR
GR
GS
[1 0 0 1 451.93332 80.125] CT
0.149 GC
/Helvetica 14.5 F
GS
[1 0 0 1 0 0] CT
-9 5 moveto 
1 -1 scale
(6) t 
GR
GR
GS
[1 0 0 1 451.93332 37.5] CT
0.149 GC
/Helvetica 14.5 F
GS
[1 0 0 1 0 0] CT
-9 5 moveto 
1 -1 scale
(7) t 
GR
GR
GS
[0 -1 1 0 440.76666 122.74992] CT
0.149 GC
/Helvetica 15.95 F
GS
[1 0 0 1 0 0] CT
-45.5 -4 moveto 
1 -1 scale
(number of ...) t 
GR
GR
GS
[1 0 0 1 590.25055 35.50624] CT
/Helvetica-Bold 15.95 F
GS
[1 0 0 1 0 0] CT
-40.5 -4 moveto 
1 -1 scale
(n = d + d/4) t 
GR
GR
GS
0 0 1 RC
[2 2] 0 setdash
2 LJ
2 LW
N
456.5 176.052 M
461.85 173.636 L
467.735 182.929 L
474.155 144.715 L
481.11 133.998 L
489.135 154.234 L
497.695 143.768 L
506.79 129.475 L
516.955 136.18 L
528.19 146.625 L
540.495 107.29 L
554.405 115.018 L
569.385 93.478 L
585.435 104.773 L
603.625 111.647 L
623.42 89.646 L
645.355 73.724 L
668.895 73.77 L
695.645 60.332 L
724 69.581 L
S
GR
GS
1 GC
N
709.5 147 M
709.5 127.5 L
604.5 127.5 L
604.5 147 L
cp
f
GR
GS
[1 0 0 1 641.5 137.25] CT
/Helvetica 13.05 F
GS
[1 0 0 1 0 0] CT
0 5 moveto 
1 -1 scale
(1/min\(eigs\)) t 
GR
GR
GS
0 0 1 RC
[2 2] 0 setdash
2 LJ
2 LW
N
608.5 137.25 M
638.5 137.25 L
S
GR
GS
0.149 GC
10.0 ML
0.5 LW
N
604.5 147 M
604.5 127.5 L
709.5 127.5 L
709.5 147 L
cp
S
GR
GS
1 GC
N
104 445 M
371.5 445 L
371.5 274.5 L
104 274.5 L
cp
f
GR
GS
0.149 GC
2 setlinecap
1 LJ
0.5 LW
N
104 445 M
371.5 445 L
S
GR
GS
0.149 GC
2 setlinecap
1 LJ
0.5 LW
N
104 445 M
104 442.325 L
S
GR
GS
0.149 GC
2 setlinecap
1 LJ
0.5 LW
N
157.5 445 M
157.5 442.325 L
S
GR
GS
0.149 GC
2 setlinecap
1 LJ
0.5 LW
N
211 445 M
211 442.325 L
S
GR
GS
0.149 GC
2 setlinecap
1 LJ
0.5 LW
N
264.5 445 M
264.5 442.325 L
S
GR
GS
0.149 GC
2 setlinecap
1 LJ
0.5 LW
N
318 445 M
318 442.325 L
S
GR
GS
0.149 GC
2 setlinecap
1 LJ
0.5 LW
N
371.5 445 M
371.5 442.325 L
S
GR
GS
[1 0 0 1 104 449.56671] CT
0.149 GC
/Helvetica 14.5 F
GS
[1 0 0 1 0 0] CT
-12.5 14 moveto 
1 -1 scale
(100) t 
GR
GR
GS
[1 0 0 1 157.5 449.56671] CT
0.149 GC
/Helvetica 14.5 F
GS
[1 0 0 1 0 0] CT
-12.5 14 moveto 
1 -1 scale
(200) t 
GR
GR
GS
[1 0 0 1 211 449.56671] CT
0.149 GC
/Helvetica 14.5 F
GS
[1 0 0 1 0 0] CT
-12.5 14 moveto 
1 -1 scale
(300) t 
GR
GR
GS
[1 0 0 1 264.5 449.56671] CT
0.149 GC
/Helvetica 14.5 F
GS
[1 0 0 1 0 0] CT
-12.5 14 moveto 
1 -1 scale
(400) t 
GR
GR
GS
[1 0 0 1 318 449.56671] CT
0.149 GC
/Helvetica 14.5 F
GS
[1 0 0 1 0 0] CT
-12.5 14 moveto 
1 -1 scale
(500) t 
GR
GR
GS
[1 0 0 1 371.5 449.56671] CT
0.149 GC
/Helvetica 14.5 F
GS
[1 0 0 1 0 0] CT
-12.5 14 moveto 
1 -1 scale
(600) t 
GR
GR
GS
[1 0 0 1 237.75014 467.90002] CT
0.149 GC
/Helvetica 15.95 F
GS
[1 0 0 1 0 0] CT
-44 16 moveto 
1 -1 scale
(dimension d) t 
GR
GR
GS
0.149 GC
2 setlinecap
1 LJ
0.5 LW
N
104 445 M
104 274.5 L
S
GR
GS
0.149 GC
2 setlinecap
1 LJ
0.5 LW
N
104 433.76 M
106.675 433.76 L
S
GR
GS
0.149 GC
2 setlinecap
1 LJ
0.5 LW
N
104 358.77 M
106.675 358.77 L
S
GR
GS
0.149 GC
2 setlinecap
1 LJ
0.5 LW
N
104 283.781 M
106.675 283.781 L
S
GR
GS
[1 0 0 1 99.43333 433.75983] CT
0.149 GC
/Helvetica 14.5 F
GS
[1 0 0 1 0 0] CT
-21 5 moveto 
1 -1 scale
(5.5) t 
GR
GR
GS
[1 0 0 1 99.43333 358.77026] CT
0.149 GC
/Helvetica 14.5 F
GS
[1 0 0 1 0 0] CT
-9 5 moveto 
1 -1 scale
(6) t 
GR
GR
GS
[1 0 0 1 99.43333 283.7807] CT
0.149 GC
/Helvetica 14.5 F
GS
[1 0 0 1 0 0] CT
-21 5 moveto 
1 -1 scale
(6.5) t 
GR
GR
GS
[0 -1 1 0 76.26667 359.74988] CT
0.149 GC
/Helvetica 15.95 F
GS
[1 0 0 1 0 0] CT
-45.5 -4 moveto 
1 -1 scale
(number of ...) t 
GR
GR
GS
[1 0 0 1 237.75023 272.5062] CT
/Helvetica-Bold 15.95 F
GS
[1 0 0 1 0 0] CT
-40.5 -4 moveto 
1 -1 scale
(n = d + d/2) t 
GR
GR
GS
0 0 1 RC
[2 2] 0 setdash
2 LJ
2 LW
N
104 445 M
109.35 439.338 L
115.235 435.014 L
121.655 423.169 L
128.61 397.168 L
136.635 406.325 L
145.195 381.691 L
154.29 371.102 L
164.455 375.736 L
175.69 356.018 L
187.995 337.892 L
201.905 338.372 L
216.885 323.99 L
232.935 308.179 L
251.125 285.06 L
270.92 310.031 L
292.855 292.139 L
316.395 290.026 L
343.145 276.669 L
371.5 274.5 L
S
GR
GS
1 GC
N
357.5 355 M
357.5 335.5 L
252.5 335.5 L
252.5 355 L
cp
f
GR
GS
[1 0 0 1 289.5 345.25] CT
/Helvetica 13.05 F
GS
[1 0 0 1 0 0] CT
0 5 moveto 
1 -1 scale
(1/min\(eigs\)) t 
GR
GR
GS
0 0 1 RC
[2 2] 0 setdash
2 LJ
2 LW
N
256.5 345.25 M
286.5 345.25 L
S
GR
GS
0.149 GC
10.0 ML
0.5 LW
N
252.5 355 M
252.5 335.5 L
357.5 335.5 L
357.5 355 L
cp
S
GR
GS
1 GC
N
456.5 445 M
724 445 L
724 274.5 L
456.5 274.5 L
cp
f
GR
GS
0.149 GC
2 setlinecap
1 LJ
0.5 LW
N
456.5 445 M
724 445 L
S
GR
GS
0.149 GC
2 setlinecap
1 LJ
0.5 LW
N
456.5 445 M
456.5 442.325 L
S
GR
GS
0.149 GC
2 setlinecap
1 LJ
0.5 LW
N
510 445 M
510 442.325 L
S
GR
GS
0.149 GC
2 setlinecap
1 LJ
0.5 LW
N
563.5 445 M
563.5 442.325 L
S
GR
GS
0.149 GC
2 setlinecap
1 LJ
0.5 LW
N
617 445 M
617 442.325 L
S
GR
GS
0.149 GC
2 setlinecap
1 LJ
0.5 LW
N
670.5 445 M
670.5 442.325 L
S
GR
GS
0.149 GC
2 setlinecap
1 LJ
0.5 LW
N
724 445 M
724 442.325 L
S
GR
GS
[1 0 0 1 456.5 449.56665] CT
0.149 GC
/Helvetica 14.5 F
GS
[1 0 0 1 0 0] CT
-12.5 14 moveto 
1 -1 scale
(100) t 
GR
GR
GS
[1 0 0 1 510 449.56665] CT
0.149 GC
/Helvetica 14.5 F
GS
[1 0 0 1 0 0] CT
-12.5 14 moveto 
1 -1 scale
(200) t 
GR
GR
GS
[1 0 0 1 563.5 449.56665] CT
0.149 GC
/Helvetica 14.5 F
GS
[1 0 0 1 0 0] CT
-12.5 14 moveto 
1 -1 scale
(300) t 
GR
GR
GS
[1 0 0 1 617 449.56665] CT
0.149 GC
/Helvetica 14.5 F
GS
[1 0 0 1 0 0] CT
-12.5 14 moveto 
1 -1 scale
(400) t 
GR
GR
GS
[1 0 0 1 670.5 449.56665] CT
0.149 GC
/Helvetica 14.5 F
GS
[1 0 0 1 0 0] CT
-12.5 14 moveto 
1 -1 scale
(500) t 
GR
GR
GS
[1 0 0 1 724 449.56665] CT
0.149 GC
/Helvetica 14.5 F
GS
[1 0 0 1 0 0] CT
-12.5 14 moveto 
1 -1 scale
(600) t 
GR
GR
GS
[1 0 0 1 590.25012 467.89996] CT
0.149 GC
/Helvetica 15.95 F
GS
[1 0 0 1 0 0] CT
-44 16 moveto 
1 -1 scale
(dimension d) t 
GR
GR
GS
0.149 GC
2 setlinecap
1 LJ
0.5 LW
N
456.5 445 M
456.5 274.5 L
S
GR
GS
0.149 GC
2 setlinecap
1 LJ
0.5 LW
N
456.5 445 M
459.175 445 L
S
GR
GS
0.149 GC
2 setlinecap
1 LJ
0.5 LW
N
456.5 388.167 M
459.175 388.167 L
S
GR
GS
0.149 GC
2 setlinecap
1 LJ
0.5 LW
N
456.5 331.333 M
459.175 331.333 L
S
GR
GS
0.149 GC
2 setlinecap
1 LJ
0.5 LW
N
456.5 274.5 M
459.175 274.5 L
S
GR
GS
[1 0 0 1 451.93332 445] CT
0.149 GC
/Helvetica 14.5 F
GS
[1 0 0 1 0 0] CT
-9 5 moveto 
1 -1 scale
(6) t 
GR
GR
GS
[1 0 0 1 451.93332 388.16666] CT
0.149 GC
/Helvetica 14.5 F
GS
[1 0 0 1 0 0] CT
-21 5 moveto 
1 -1 scale
(6.5) t 
GR
GR
GS
[1 0 0 1 451.93332 331.33334] CT
0.149 GC
/Helvetica 14.5 F
GS
[1 0 0 1 0 0] CT
-9 5 moveto 
1 -1 scale
(7) t 
GR
GR
GS
[1 0 0 1 451.93332 274.5] CT
0.149 GC
/Helvetica 14.5 F
GS
[1 0 0 1 0 0] CT
-21 5 moveto 
1 -1 scale
(7.5) t 
GR
GR
GS
[0 -1 1 0 428.76666 359.74988] CT
0.149 GC
/Helvetica 15.95 F
GS
[1 0 0 1 0 0] CT
-45.5 -4 moveto 
1 -1 scale
(number of ...) t 
GR
GR
GS
[1 0 0 1 590.25055 272.50623] CT
/Helvetica-Bold 15.95 F
GS
[1 0 0 1 0 0] CT
-40.5 -4 moveto 
1 -1 scale
(n = d + d/1) t 
GR
GR
GS
0 0 1 RC
[2 2] 0 setdash
2 LJ
2 LW
N
456.5 439.96 M
461.85 426.258 L
467.735 391.635 L
474.155 385.481 L
481.11 360.382 L
489.135 376.703 L
497.695 345.097 L
506.79 350.872 L
516.955 339.334 L
528.19 330.868 L
540.495 327.502 L
554.405 320.715 L
569.385 300.789 L
585.435 296.26 L
603.625 317.982 L
623.42 296.538 L
645.355 292.989 L
668.895 300.535 L
695.645 290.256 L
724 279.292 L
S
GR
GS
1 GC
N
709.5 355 M
709.5 335.5 L
604.5 335.5 L
604.5 355 L
cp
f
GR
GS
[1 0 0 1 641.5 345.25] CT
/Helvetica 13.05 F
GS
[1 0 0 1 0 0] CT
0 5 moveto 
1 -1 scale
(1/min\(eigs\)) t 
GR
GR
GS
0 0 1 RC
[2 2] 0 setdash
2 LJ
2 LW
N
608.5 345.25 M
638.5 345.25 L
S
GR
GS
0.149 GC
10.0 ML
0.5 LW
N
604.5 355 M
604.5 335.5 L
709.5 335.5 L
709.5 355 L
cp
S
GR
%%Trailer
%%Pages: 1
%%EOF
