%!PS-Adobe-3.0 EPSF-3.0
%%Creator: (MATLAB, The Mathworks, Inc. Version 9.4.0.813654 \(R2018a\). Operating System: Mac OS X)
%%Title: /Users/michal/Repositories/spectral/figs/missing-one.eps
%%CreationDate: 2018-09-23T17:41:15
%%Pages: (atend)
%%BoundingBox: 0 0 553 311
%%LanguageLevel: 3
%%EndComments
%%BeginProlog
%%BeginResource: procset (Apache XML Graphics Std ProcSet) 1.2 0
%%Version: 1.2 0
%%Copyright: (Copyright 2001-2003,2010 The Apache Software Foundation. License terms: http://www.apache.org/licenses/LICENSE-2.0)
/bd{bind def}bind def
/ld{load def}bd
/GR/grestore ld
/GS/gsave ld
/RM/rmoveto ld
/C/curveto ld
/t/show ld
/L/lineto ld
/ML/setmiterlimit ld
/CT/concat ld
/f/fill ld
/N/newpath ld
/S/stroke ld
/CC/setcmykcolor ld
/A/ashow ld
/cp/closepath ld
/RC/setrgbcolor ld
/LJ/setlinejoin ld
/GC/setgray ld
/LW/setlinewidth ld
/M/moveto ld
/re {4 2 roll M
1 index 0 rlineto
0 exch rlineto
neg 0 rlineto
cp } bd
/_ctm matrix def
/_tm matrix def
/BT { _ctm currentmatrix pop matrix _tm copy pop 0 0 moveto } bd
/ET { _ctm setmatrix } bd
/iTm { _ctm setmatrix _tm concat } bd
/Tm { _tm astore pop iTm 0 0 moveto } bd
/ux 0.0 def
/uy 0.0 def
/F {
  /Tp exch def
  /Tf exch def
  Tf findfont Tp scalefont setfont
  /cf Tf def  /cs Tp def
} bd
/ULS {currentpoint /uy exch def /ux exch def} bd
/ULE {
  /Tcx currentpoint pop def
  gsave
  newpath
  cf findfont cs scalefont dup
  /FontMatrix get 0 get /Ts exch def /FontInfo get dup
  /UnderlinePosition get Ts mul /To exch def
  /UnderlineThickness get Ts mul /Tt exch def
  ux uy To add moveto  Tcx uy To add lineto
  Tt setlinewidth stroke
  grestore
} bd
/OLE {
  /Tcx currentpoint pop def
  gsave
  newpath
  cf findfont cs scalefont dup
  /FontMatrix get 0 get /Ts exch def /FontInfo get dup
  /UnderlinePosition get Ts mul /To exch def
  /UnderlineThickness get Ts mul /Tt exch def
  ux uy To add cs add moveto Tcx uy To add cs add lineto
  Tt setlinewidth stroke
  grestore
} bd
/SOE {
  /Tcx currentpoint pop def
  gsave
  newpath
  cf findfont cs scalefont dup
  /FontMatrix get 0 get /Ts exch def /FontInfo get dup
  /UnderlinePosition get Ts mul /To exch def
  /UnderlineThickness get Ts mul /Tt exch def
  ux uy To add cs 10 mul 26 idiv add moveto Tcx uy To add cs 10 mul 26 idiv add lineto
  Tt setlinewidth stroke
  grestore
} bd
/QT {
/Y22 exch store
/X22 exch store
/Y21 exch store
/X21 exch store
currentpoint
/Y21 load 2 mul add 3 div exch
/X21 load 2 mul add 3 div exch
/X21 load 2 mul /X22 load add 3 div
/Y21 load 2 mul /Y22 load add 3 div
/X22 load /Y22 load curveto
} bd
/SSPD {
dup length /d exch dict def
{
/v exch def
/k exch def
currentpagedevice k known {
/cpdv currentpagedevice k get def
v cpdv ne {
/upd false def
/nullv v type /nulltype eq def
/nullcpdv cpdv type /nulltype eq def
nullv nullcpdv or
{
/upd true def
} {
/sametype v type cpdv type eq def
sametype {
v type /arraytype eq {
/vlen v length def
/cpdvlen cpdv length def
vlen cpdvlen eq {
0 1 vlen 1 sub {
/i exch def
/obj v i get def
/cpdobj cpdv i get def
obj cpdobj ne {
/upd true def
exit
} if
} for
} {
/upd true def
} ifelse
} {
v type /dicttype eq {
v {
/dv exch def
/dk exch def
/cpddv cpdv dk get def
dv cpddv ne {
/upd true def
exit
} if
} forall
} {
/upd true def
} ifelse
} ifelse
} if
} ifelse
upd true eq {
d k v put
} if
} if
} if
} forall
d length 0 gt {
d setpagedevice
} if
} bd
/RE { % /NewFontName [NewEncodingArray] /FontName RE -
  findfont dup length dict begin
  {
    1 index /FID ne
    {def} {pop pop} ifelse
  } forall
  /Encoding exch def
  /FontName 1 index def
  currentdict definefont pop
  end
} bind def
%%EndResource
%%BeginResource: procset (Apache XML Graphics EPS ProcSet) 1.0 0
%%Version: 1.0 0
%%Copyright: (Copyright 2002-2003 The Apache Software Foundation. License terms: http://www.apache.org/licenses/LICENSE-2.0)
/BeginEPSF { %def
/b4_Inc_state save def         % Save state for cleanup
/dict_count countdictstack def % Count objects on dict stack
/op_count count 1 sub def      % Count objects on operand stack
userdict begin                 % Push userdict on dict stack
/showpage { } def              % Redefine showpage, { } = null proc
0 setgray 0 setlinecap         % Prepare graphics state
1 setlinewidth 0 setlinejoin
10 setmiterlimit [ ] 0 setdash newpath
/languagelevel where           % If level not equal to 1 then
{pop languagelevel             % set strokeadjust and
1 ne                           % overprint to their defaults.
{false setstrokeadjust false setoverprint
} if
} if
} bd
/EndEPSF { %def
count op_count sub {pop} repeat            % Clean up stacks
countdictstack dict_count sub {end} repeat
b4_Inc_state restore
} bd
%%EndResource
%FOPBeginFontDict
%%IncludeResource: font Courier-Oblique
%%IncludeResource: font Courier-BoldOblique
%%IncludeResource: font Courier-Bold
%%IncludeResource: font ZapfDingbats
%%IncludeResource: font Symbol
%%IncludeResource: font Helvetica
%%IncludeResource: font Helvetica-Oblique
%%IncludeResource: font Helvetica-Bold
%%IncludeResource: font Helvetica-BoldOblique
%%IncludeResource: font Times-Roman
%%IncludeResource: font Times-Italic
%%IncludeResource: font Times-Bold
%%IncludeResource: font Times-BoldItalic
%%IncludeResource: font Courier
%FOPEndFontDict
%%BeginResource: encoding WinAnsiEncoding
/WinAnsiEncoding [
/.notdef /.notdef /.notdef /.notdef /.notdef
/.notdef /.notdef /.notdef /.notdef /.notdef
/.notdef /.notdef /.notdef /.notdef /.notdef
/.notdef /.notdef /.notdef /.notdef /.notdef
/.notdef /.notdef /.notdef /.notdef /.notdef
/.notdef /.notdef /.notdef /.notdef /.notdef
/.notdef /.notdef /space /exclam /quotedbl
/numbersign /dollar /percent /ampersand /quotesingle
/parenleft /parenright /asterisk /plus /comma
/hyphen /period /slash /zero /one
/two /three /four /five /six
/seven /eight /nine /colon /semicolon
/less /equal /greater /question /at
/A /B /C /D /E
/F /G /H /I /J
/K /L /M /N /O
/P /Q /R /S /T
/U /V /W /X /Y
/Z /bracketleft /backslash /bracketright /asciicircum
/underscore /quoteleft /a /b /c
/d /e /f /g /h
/i /j /k /l /m
/n /o /p /q /r
/s /t /u /v /w
/x /y /z /braceleft /bar
/braceright /asciitilde /bullet /Euro /bullet
/quotesinglbase /florin /quotedblbase /ellipsis /dagger
/daggerdbl /circumflex /perthousand /Scaron /guilsinglleft
/OE /bullet /Zcaron /bullet /bullet
/quoteleft /quoteright /quotedblleft /quotedblright /bullet
/endash /emdash /asciitilde /trademark /scaron
/guilsinglright /oe /bullet /zcaron /Ydieresis
/space /exclamdown /cent /sterling /currency
/yen /brokenbar /section /dieresis /copyright
/ordfeminine /guillemotleft /logicalnot /sfthyphen /registered
/macron /degree /plusminus /twosuperior /threesuperior
/acute /mu /paragraph /middot /cedilla
/onesuperior /ordmasculine /guillemotright /onequarter /onehalf
/threequarters /questiondown /Agrave /Aacute /Acircumflex
/Atilde /Adieresis /Aring /AE /Ccedilla
/Egrave /Eacute /Ecircumflex /Edieresis /Igrave
/Iacute /Icircumflex /Idieresis /Eth /Ntilde
/Ograve /Oacute /Ocircumflex /Otilde /Odieresis
/multiply /Oslash /Ugrave /Uacute /Ucircumflex
/Udieresis /Yacute /Thorn /germandbls /agrave
/aacute /acircumflex /atilde /adieresis /aring
/ae /ccedilla /egrave /eacute /ecircumflex
/edieresis /igrave /iacute /icircumflex /idieresis
/eth /ntilde /ograve /oacute /ocircumflex
/otilde /odieresis /divide /oslash /ugrave
/uacute /ucircumflex /udieresis /yacute /thorn
/ydieresis
] def
%%EndResource
%FOPBeginFontReencode
/Courier-Oblique findfont
dup length dict begin
  {1 index /FID ne {def} {pop pop} ifelse} forall
  /Encoding WinAnsiEncoding def
  currentdict
end
/Courier-Oblique exch definefont pop
/Courier-BoldOblique findfont
dup length dict begin
  {1 index /FID ne {def} {pop pop} ifelse} forall
  /Encoding WinAnsiEncoding def
  currentdict
end
/Courier-BoldOblique exch definefont pop
/Courier-Bold findfont
dup length dict begin
  {1 index /FID ne {def} {pop pop} ifelse} forall
  /Encoding WinAnsiEncoding def
  currentdict
end
/Courier-Bold exch definefont pop
/Helvetica findfont
dup length dict begin
  {1 index /FID ne {def} {pop pop} ifelse} forall
  /Encoding WinAnsiEncoding def
  currentdict
end
/Helvetica exch definefont pop
/Helvetica-Oblique findfont
dup length dict begin
  {1 index /FID ne {def} {pop pop} ifelse} forall
  /Encoding WinAnsiEncoding def
  currentdict
end
/Helvetica-Oblique exch definefont pop
/Helvetica-Bold findfont
dup length dict begin
  {1 index /FID ne {def} {pop pop} ifelse} forall
  /Encoding WinAnsiEncoding def
  currentdict
end
/Helvetica-Bold exch definefont pop
/Helvetica-BoldOblique findfont
dup length dict begin
  {1 index /FID ne {def} {pop pop} ifelse} forall
  /Encoding WinAnsiEncoding def
  currentdict
end
/Helvetica-BoldOblique exch definefont pop
/Times-Roman findfont
dup length dict begin
  {1 index /FID ne {def} {pop pop} ifelse} forall
  /Encoding WinAnsiEncoding def
  currentdict
end
/Times-Roman exch definefont pop
/Times-Italic findfont
dup length dict begin
  {1 index /FID ne {def} {pop pop} ifelse} forall
  /Encoding WinAnsiEncoding def
  currentdict
end
/Times-Italic exch definefont pop
/Times-Bold findfont
dup length dict begin
  {1 index /FID ne {def} {pop pop} ifelse} forall
  /Encoding WinAnsiEncoding def
  currentdict
end
/Times-Bold exch definefont pop
/Times-BoldItalic findfont
dup length dict begin
  {1 index /FID ne {def} {pop pop} ifelse} forall
  /Encoding WinAnsiEncoding def
  currentdict
end
/Times-BoldItalic exch definefont pop
/Courier findfont
dup length dict begin
  {1 index /FID ne {def} {pop pop} ifelse} forall
  /Encoding WinAnsiEncoding def
  currentdict
end
/Courier exch definefont pop
%FOPEndFontReencode
%%EndProlog
%%Page: 1 1
%%PageBoundingBox: 0 0 553 311
%%BeginPageSetup
[1 0 0 -1 0 311] CT
%%EndPageSetup
GS
1 GC
N
0 0 553 311 re
f
GR
GS
1 GC
N
0 0 553 311 re
f
GR
GS
1 GC
N
72 267 M
500.5 267 L
500.5 29 L
72 29 L
cp
f
GR
GS
0.149 GC
2 setlinecap
1 LJ
0.5 LW
N
72 267 M
500.5 267 L
S
GR
GS
0.149 GC
2 setlinecap
1 LJ
0.5 LW
N
72 267 M
72 262.715 L
S
GR
GS
0.149 GC
2 setlinecap
1 LJ
0.5 LW
N
157.7 267 M
157.7 262.715 L
S
GR
GS
0.149 GC
2 setlinecap
1 LJ
0.5 LW
N
243.4 267 M
243.4 262.715 L
S
GR
GS
0.149 GC
2 setlinecap
1 LJ
0.5 LW
N
329.1 267 M
329.1 262.715 L
S
GR
GS
0.149 GC
2 setlinecap
1 LJ
0.5 LW
N
414.8 267 M
414.8 262.715 L
S
GR
GS
0.149 GC
2 setlinecap
1 LJ
0.5 LW
N
500.5 267 M
500.5 262.715 L
S
GR
GS
[1 0 0 1 72 272] CT
0.149 GC
/Helvetica 15 F
GS
[1 0 0 1 0 0] CT
-4.5 15 moveto 
1 -1 scale
(0) t 
GR
GR
GS
[1 0 0 1 157.7 272] CT
0.149 GC
/Helvetica 15 F
GS
[1 0 0 1 0 0] CT
-13 15 moveto 
1 -1 scale
(200) t 
GR
GR
GS
[1 0 0 1 243.39999 272] CT
0.149 GC
/Helvetica 15 F
GS
[1 0 0 1 0 0] CT
-13 15 moveto 
1 -1 scale
(400) t 
GR
GR
GS
[1 0 0 1 329.10001 272] CT
0.149 GC
/Helvetica 15 F
GS
[1 0 0 1 0 0] CT
-13 15 moveto 
1 -1 scale
(600) t 
GR
GR
GS
[1 0 0 1 414.79999 272] CT
0.149 GC
/Helvetica 15 F
GS
[1 0 0 1 0 0] CT
-13 15 moveto 
1 -1 scale
(800) t 
GR
GR
GS
[1 0 0 1 500.5 272] CT
0.149 GC
/Helvetica 15 F
GS
[1 0 0 1 0 0] CT
-17 15 moveto 
1 -1 scale
(1000) t 
GR
GR
GS
[1 0 0 1 286.25021 291] CT
0.149 GC
/Helvetica 16.5 F
GS
[1 0 0 1 0 0] CT
-45.5 16 moveto 
1 -1 scale
(dimension d) t 
GR
GR
GS
0.149 GC
2 setlinecap
1 LJ
0.5 LW
N
72 267 M
72 29 L
S
GR
GS
0.149 GC
2 setlinecap
1 LJ
0.5 LW
N
72 267 M
76.285 267 L
S
GR
GS
0.149 GC
2 setlinecap
1 LJ
0.5 LW
N
72 227.333 M
76.285 227.333 L
S
GR
GS
0.149 GC
2 setlinecap
1 LJ
0.5 LW
N
72 187.667 M
76.285 187.667 L
S
GR
GS
0.149 GC
2 setlinecap
1 LJ
0.5 LW
N
72 148 M
76.285 148 L
S
GR
GS
0.149 GC
2 setlinecap
1 LJ
0.5 LW
N
72 108.333 M
76.285 108.333 L
S
GR
GS
0.149 GC
2 setlinecap
1 LJ
0.5 LW
N
72 68.667 M
76.285 68.667 L
S
GR
GS
0.149 GC
2 setlinecap
1 LJ
0.5 LW
N
72 29 M
76.285 29 L
S
GR
GS
[1 0 0 1 67 267] CT
0.149 GC
/Helvetica 15 F
GS
[1 0 0 1 0 0] CT
-9 5.5 moveto 
1 -1 scale
(0) t 
GR
GR
GS
[1 0 0 1 67 227.33333] CT
0.149 GC
/Helvetica 15 F
GS
[1 0 0 1 0 0] CT
-21 5.5 moveto 
1 -1 scale
(0.1) t 
GR
GR
GS
[1 0 0 1 67 187.66667] CT
0.149 GC
/Helvetica 15 F
GS
[1 0 0 1 0 0] CT
-21 5.5 moveto 
1 -1 scale
(0.2) t 
GR
GR
GS
[1 0 0 1 67 148] CT
0.149 GC
/Helvetica 15 F
GS
[1 0 0 1 0 0] CT
-21 5.5 moveto 
1 -1 scale
(0.3) t 
GR
GR
GS
[1 0 0 1 67 108.33333] CT
0.149 GC
/Helvetica 15 F
GS
[1 0 0 1 0 0] CT
-21 5.5 moveto 
1 -1 scale
(0.4) t 
GR
GR
GS
[1 0 0 1 67 68.66666] CT
0.149 GC
/Helvetica 15 F
GS
[1 0 0 1 0 0] CT
-21 5.5 moveto 
1 -1 scale
(0.5) t 
GR
GR
GS
[1 0 0 1 67 28.99999] CT
0.149 GC
/Helvetica 15 F
GS
[1 0 0 1 0 0] CT
-21 5.5 moveto 
1 -1 scale
(0.6) t 
GR
GR
GS
[0 -1 1 0 43 147.99988] CT
0.149 GC
/Helvetica 16.5 F
GS
[1 0 0 1 0 0] CT
-72.5 -4 moveto 
1 -1 scale
(smallest eigenvalue) t 
GR
GR
GS
[1 0 0 1 247 23] CT
/Helvetica-Bold 16.5 F
GS
[1 0 0 1 0 0] CT
0 0 moveto 
1 -1 scale
(n = d + d) t 
GR
GR
GS
[1 0 0 1 316 15] CT
/Helvetica-Bold 13.2 F
GS
[1 0 0 1 0 0] CT
0 0 moveto 
1 -1 scale
(a) t 
GR
GR
GS
1 0.251 0.251 RC
[8 8] 0 setdash
2 LJ
2 LW
N
76.285 78.656 M
77.571 53.937 L
79.285 67.141 L
80.998 69.634 L
83.57 61.876 L
86.569 68.572 L
90.425 65.069 L
95.567 63.551 L
101.995 66.948 L
110.136 66.673 L
120.421 70.056 L
133.704 72.11 L
150.844 66.012 L
172.269 67.656 L
199.693 66.679 L
234.83 71.557 L
279.394 68.592 L
335.956 69.663 L
408.372 67.899 L
500.5 69.134 L
S
GR
GS
1 0.251 0.251 RC
1 LJ
N
76.285 68.667 M
77.571 68.667 L
79.285 68.667 L
80.998 68.667 L
83.57 68.667 L
86.569 68.667 L
90.425 68.667 L
95.567 68.667 L
101.995 68.667 L
110.136 68.667 L
120.421 68.667 L
133.704 68.667 L
150.844 68.667 L
172.269 68.667 L
199.693 68.667 L
234.83 68.667 L
279.394 68.667 L
335.956 68.667 L
408.372 68.667 L
500.5 68.667 L
S
GR
GS
0.502 0 0.502 RC
[8 8] 0 setdash
2 LJ
2 LW
N
76.285 77.829 M
77.571 79.272 L
79.285 81.659 L
80.998 105.298 L
83.57 105.817 L
86.569 103.93 L
90.425 113.828 L
95.567 101.613 L
101.995 120.964 L
110.136 117.586 L
120.421 129.626 L
133.704 126.228 L
150.844 127.527 L
172.269 135.829 L
199.693 133.753 L
234.83 139.363 L
279.394 143.58 L
335.956 140.591 L
408.372 146.226 L
500.5 149.505 L
S
GR
GS
0.502 0 0.502 RC
1 LJ
N
76.285 97.014 M
77.571 100.192 L
79.285 103.424 L
80.998 105.957 L
83.57 108.953 L
86.569 111.685 L
90.425 114.45 L
95.567 117.328 L
101.995 120.127 L
110.136 122.892 L
120.421 125.619 L
133.704 128.364 L
150.844 131.114 L
172.269 133.786 L
199.693 136.446 L
234.83 139.094 L
279.394 141.7 L
335.956 144.27 L
408.372 146.823 L
500.5 149.343 L
S
GR
GS
0.502 0.502 0 RC
[8 8] 0 setdash
2 LJ
2 LW
N
76.285 109.539 M
77.571 135.414 L
79.285 118.497 L
80.998 128.411 L
83.57 142.147 L
86.569 142.041 L
90.425 160.052 L
95.567 157.216 L
101.995 154.466 L
110.136 171.92 L
120.421 175.547 L
133.704 173.28 L
150.844 180.21 L
172.269 182.755 L
199.693 192.399 L
234.83 194.428 L
279.394 194.589 L
335.956 201.238 L
408.372 202.067 L
500.5 207.15 L
S
GR
GS
0.502 0.502 0 RC
1 LJ
N
76.285 124.226 M
77.571 130.163 L
79.285 136.11 L
80.998 140.701 L
83.57 146.047 L
86.569 150.837 L
90.425 155.6 L
95.567 160.463 L
101.995 165.095 L
110.136 169.574 L
120.421 173.894 L
133.704 178.143 L
150.844 182.297 L
172.269 186.231 L
199.693 190.05 L
234.83 193.749 L
279.394 197.292 L
335.956 200.689 L
408.372 203.969 L
500.5 207.111 L
S
GR
GS
0 0.502 0.502 RC
[8 8] 0 setdash
2 LJ
2 LW
N
76.285 122.162 M
77.571 127.294 L
79.285 158.999 L
80.998 159.81 L
83.57 171.225 L
86.569 167.28 L
90.425 191.816 L
95.567 188.704 L
101.995 197.916 L
110.136 200.737 L
120.421 208.979 L
133.704 210.174 L
150.844 213.304 L
172.269 221.329 L
199.693 222.486 L
234.83 227.701 L
279.394 232.15 L
335.956 233.29 L
408.372 236.96 L
500.5 239.61 L
S
GR
GS
0 0.502 0.502 RC
1 LJ
N
76.285 149.343 M
77.571 157.319 L
79.285 165.12 L
80.998 171.003 L
83.57 177.693 L
86.569 183.533 L
90.425 189.189 L
95.567 194.8 L
101.995 199.989 L
110.136 204.855 L
120.421 209.405 L
133.704 213.738 L
150.844 217.836 L
172.269 221.588 L
199.693 225.109 L
234.83 228.403 L
279.394 231.451 L
335.956 234.271 L
408.372 236.899 L
500.5 239.329 L
S
GR
GS
0 0 1 RC
[8 8] 0 setdash
2 LJ
2 LW
N
76.285 150.435 M
77.571 162.983 L
79.285 165.272 L
80.998 191.884 L
83.57 198.303 L
86.569 206.125 L
90.425 211.349 L
95.567 221.443 L
101.995 215.038 L
110.136 227.971 L
120.421 231.791 L
133.704 239.519 L
150.844 236.292 L
172.269 240.924 L
199.693 243.869 L
234.83 246.709 L
279.394 250.658 L
335.956 251.19 L
408.372 252.617 L
500.5 254.125 L
S
GR
GS
0 0 1 RC
1 LJ
N
76.285 171.7 M
77.571 180.872 L
79.285 189.573 L
80.998 195.946 L
83.57 202.982 L
86.569 208.931 L
90.425 214.513 L
95.567 219.869 L
101.995 224.651 L
110.136 228.983 L
120.421 232.893 L
133.704 236.487 L
150.844 239.765 L
172.269 242.66 L
199.693 245.28 L
234.83 247.644 L
279.394 249.754 L
335.956 251.637 L
408.372 253.33 L
500.5 254.841 L
S
GR
GS
1 GC
N
543 256 M
543 67.5 L
460 67.5 L
460 256 L
cp
f
GR
GS
[1 0 0 1 497 77.5] CT
/Helvetica 13.5 F
GS
[1 0 0 1 0 0] CT
0 5 moveto 
1 -1 scale
(a=1.00) t 
GR
GR
GS
1 0.251 0.251 RC
[8 8] 0 setdash
2 LJ
2 LW
N
464 77.5 M
494 77.5 L
S
GR
GS
[1 0 0 1 497 103] CT
/Helvetica 13.5 F
GS
[1 0 0 1 0 0] CT
0 0 moveto 
1 -1 scale
(d) t 
GR
GR
GS
[1 0 0 1 506 97] CT
/Helvetica 10.8 F
GS
[1 0 0 1 0 0] CT
0 0 moveto 
1 -1 scale
(a) t 
GR
GR
GS
[1 0 0 1 512 103] CT
/Helvetica 13.5 F
GS
[1 0 0 1 0 0] CT
0 0 moveto 
1 -1 scale
(/n) t 
GR
GR
GS
1 0.251 0.251 RC
1 LJ
N
464 96 M
494 96 L
S
GR
GS
[1 0 0 1 497 114.50001] CT
/Helvetica 13.5 F
GS
[1 0 0 1 0 0] CT
0 5 moveto 
1 -1 scale
(a=0.88) t 
GR
GR
GS
0.502 0 0.502 RC
[8 8] 0 setdash
2 LJ
2 LW
N
464 114.5 M
494 114.5 L
S
GR
GS
[1 0 0 1 497 140] CT
/Helvetica 13.5 F
GS
[1 0 0 1 0 0] CT
0 0 moveto 
1 -1 scale
(d) t 
GR
GR
GS
[1 0 0 1 506 134] CT
/Helvetica 10.8 F
GS
[1 0 0 1 0 0] CT
0 0 moveto 
1 -1 scale
(a) t 
GR
GR
GS
[1 0 0 1 512 140] CT
/Helvetica 13.5 F
GS
[1 0 0 1 0 0] CT
0 0 moveto 
1 -1 scale
(/n) t 
GR
GR
GS
0.502 0 0.502 RC
1 LJ
N
464 133 M
494 133 L
S
GR
GS
[1 0 0 1 497 151.5] CT
/Helvetica 13.5 F
GS
[1 0 0 1 0 0] CT
0 5 moveto 
1 -1 scale
(a=0.75) t 
GR
GR
GS
0.502 0.502 0 RC
[8 8] 0 setdash
2 LJ
2 LW
N
464 151.5 M
494 151.5 L
S
GR
GS
[1 0 0 1 497 177] CT
/Helvetica 13.5 F
GS
[1 0 0 1 0 0] CT
0 0 moveto 
1 -1 scale
(d) t 
GR
GR
GS
[1 0 0 1 506 171] CT
/Helvetica 10.8 F
GS
[1 0 0 1 0 0] CT
0 0 moveto 
1 -1 scale
(a) t 
GR
GR
GS
[1 0 0 1 512 177] CT
/Helvetica 13.5 F
GS
[1 0 0 1 0 0] CT
0 0 moveto 
1 -1 scale
(/n) t 
GR
GR
GS
0.502 0.502 0 RC
1 LJ
N
464 170 M
494 170 L
S
GR
GS
[1 0 0 1 497 188.5] CT
/Helvetica 13.5 F
GS
[1 0 0 1 0 0] CT
0 5 moveto 
1 -1 scale
(a=0.62) t 
GR
GR
GS
0 0.502 0.502 RC
[8 8] 0 setdash
2 LJ
2 LW
N
464 188.5 M
494 188.5 L
S
GR
GS
[1 0 0 1 497 214] CT
/Helvetica 13.5 F
GS
[1 0 0 1 0 0] CT
0 0 moveto 
1 -1 scale
(d) t 
GR
GR
GS
[1 0 0 1 506 208] CT
/Helvetica 10.8 F
GS
[1 0 0 1 0 0] CT
0 0 moveto 
1 -1 scale
(a) t 
GR
GR
GS
[1 0 0 1 512 214] CT
/Helvetica 13.5 F
GS
[1 0 0 1 0 0] CT
0 0 moveto 
1 -1 scale
(/n) t 
GR
GR
GS
0 0.502 0.502 RC
1 LJ
N
464 207 M
494 207 L
S
GR
GS
[1 0 0 1 497 225.5] CT
/Helvetica 13.5 F
GS
[1 0 0 1 0 0] CT
0 5 moveto 
1 -1 scale
(a=0.50) t 
GR
GR
GS
0 0 1 RC
[8 8] 0 setdash
2 LJ
2 LW
N
464 225.5 M
494 225.5 L
S
GR
GS
[1 0 0 1 497 251] CT
/Helvetica 13.5 F
GS
[1 0 0 1 0 0] CT
0 0 moveto 
1 -1 scale
(d) t 
GR
GR
GS
[1 0 0 1 506 245] CT
/Helvetica 10.8 F
GS
[1 0 0 1 0 0] CT
0 0 moveto 
1 -1 scale
(a) t 
GR
GR
GS
[1 0 0 1 512 251] CT
/Helvetica 13.5 F
GS
[1 0 0 1 0 0] CT
0 0 moveto 
1 -1 scale
(/n) t 
GR
GR
GS
0 0 1 RC
1 LJ
N
464 244 M
494 244 L
S
GR
GS
0.149 GC
10.0 ML
0.5 LW
N
460 256 M
460 67.5 L
543 67.5 L
543 256 L
cp
S
GR
%%Trailer
%%Pages: 1
%%EOF
