%!PS-Adobe-3.0 EPSF-3.0
%%Creator: (MATLAB, The Mathworks, Inc. Version 9.4.0.813654 \(R2018a\). Operating System: Mac OS X)
%%Title: /Users/michal/Repositories/spectral/figs/rootd-eigs-2d-points.eps
%%CreationDate: 2018-09-23T10:09:52
%%Pages: (atend)
%%BoundingBox: 0 0 729 496
%%LanguageLevel: 3
%%EndComments
%%BeginProlog
%%BeginResource: procset (Apache XML Graphics Std ProcSet) 1.2 0
%%Version: 1.2 0
%%Copyright: (Copyright 2001-2003,2010 The Apache Software Foundation. License terms: http://www.apache.org/licenses/LICENSE-2.0)
/bd{bind def}bind def
/ld{load def}bd
/GR/grestore ld
/GS/gsave ld
/RM/rmoveto ld
/C/curveto ld
/t/show ld
/L/lineto ld
/ML/setmiterlimit ld
/CT/concat ld
/f/fill ld
/N/newpath ld
/S/stroke ld
/CC/setcmykcolor ld
/A/ashow ld
/cp/closepath ld
/RC/setrgbcolor ld
/LJ/setlinejoin ld
/GC/setgray ld
/LW/setlinewidth ld
/M/moveto ld
/re {4 2 roll M
1 index 0 rlineto
0 exch rlineto
neg 0 rlineto
cp } bd
/_ctm matrix def
/_tm matrix def
/BT { _ctm currentmatrix pop matrix _tm copy pop 0 0 moveto } bd
/ET { _ctm setmatrix } bd
/iTm { _ctm setmatrix _tm concat } bd
/Tm { _tm astore pop iTm 0 0 moveto } bd
/ux 0.0 def
/uy 0.0 def
/F {
  /Tp exch def
  /Tf exch def
  Tf findfont Tp scalefont setfont
  /cf Tf def  /cs Tp def
} bd
/ULS {currentpoint /uy exch def /ux exch def} bd
/ULE {
  /Tcx currentpoint pop def
  gsave
  newpath
  cf findfont cs scalefont dup
  /FontMatrix get 0 get /Ts exch def /FontInfo get dup
  /UnderlinePosition get Ts mul /To exch def
  /UnderlineThickness get Ts mul /Tt exch def
  ux uy To add moveto  Tcx uy To add lineto
  Tt setlinewidth stroke
  grestore
} bd
/OLE {
  /Tcx currentpoint pop def
  gsave
  newpath
  cf findfont cs scalefont dup
  /FontMatrix get 0 get /Ts exch def /FontInfo get dup
  /UnderlinePosition get Ts mul /To exch def
  /UnderlineThickness get Ts mul /Tt exch def
  ux uy To add cs add moveto Tcx uy To add cs add lineto
  Tt setlinewidth stroke
  grestore
} bd
/SOE {
  /Tcx currentpoint pop def
  gsave
  newpath
  cf findfont cs scalefont dup
  /FontMatrix get 0 get /Ts exch def /FontInfo get dup
  /UnderlinePosition get Ts mul /To exch def
  /UnderlineThickness get Ts mul /Tt exch def
  ux uy To add cs 10 mul 26 idiv add moveto Tcx uy To add cs 10 mul 26 idiv add lineto
  Tt setlinewidth stroke
  grestore
} bd
/QT {
/Y22 exch store
/X22 exch store
/Y21 exch store
/X21 exch store
currentpoint
/Y21 load 2 mul add 3 div exch
/X21 load 2 mul add 3 div exch
/X21 load 2 mul /X22 load add 3 div
/Y21 load 2 mul /Y22 load add 3 div
/X22 load /Y22 load curveto
} bd
/SSPD {
dup length /d exch dict def
{
/v exch def
/k exch def
currentpagedevice k known {
/cpdv currentpagedevice k get def
v cpdv ne {
/upd false def
/nullv v type /nulltype eq def
/nullcpdv cpdv type /nulltype eq def
nullv nullcpdv or
{
/upd true def
} {
/sametype v type cpdv type eq def
sametype {
v type /arraytype eq {
/vlen v length def
/cpdvlen cpdv length def
vlen cpdvlen eq {
0 1 vlen 1 sub {
/i exch def
/obj v i get def
/cpdobj cpdv i get def
obj cpdobj ne {
/upd true def
exit
} if
} for
} {
/upd true def
} ifelse
} {
v type /dicttype eq {
v {
/dv exch def
/dk exch def
/cpddv cpdv dk get def
dv cpddv ne {
/upd true def
exit
} if
} forall
} {
/upd true def
} ifelse
} ifelse
} if
} ifelse
upd true eq {
d k v put
} if
} if
} if
} forall
d length 0 gt {
d setpagedevice
} if
} bd
/RE { % /NewFontName [NewEncodingArray] /FontName RE -
  findfont dup length dict begin
  {
    1 index /FID ne
    {def} {pop pop} ifelse
  } forall
  /Encoding exch def
  /FontName 1 index def
  currentdict definefont pop
  end
} bind def
%%EndResource
%%BeginResource: procset (Apache XML Graphics EPS ProcSet) 1.0 0
%%Version: 1.0 0
%%Copyright: (Copyright 2002-2003 The Apache Software Foundation. License terms: http://www.apache.org/licenses/LICENSE-2.0)
/BeginEPSF { %def
/b4_Inc_state save def         % Save state for cleanup
/dict_count countdictstack def % Count objects on dict stack
/op_count count 1 sub def      % Count objects on operand stack
userdict begin                 % Push userdict on dict stack
/showpage { } def              % Redefine showpage, { } = null proc
0 setgray 0 setlinecap         % Prepare graphics state
1 setlinewidth 0 setlinejoin
10 setmiterlimit [ ] 0 setdash newpath
/languagelevel where           % If level not equal to 1 then
{pop languagelevel             % set strokeadjust and
1 ne                           % overprint to their defaults.
{false setstrokeadjust false setoverprint
} if
} if
} bd
/EndEPSF { %def
count op_count sub {pop} repeat            % Clean up stacks
countdictstack dict_count sub {end} repeat
b4_Inc_state restore
} bd
%%EndResource
%FOPBeginFontDict
%%IncludeResource: font Courier-Oblique
%%IncludeResource: font Courier-BoldOblique
%%IncludeResource: font Courier-Bold
%%IncludeResource: font ZapfDingbats
%%IncludeResource: font Symbol
%%IncludeResource: font Helvetica
%%IncludeResource: font Helvetica-Oblique
%%IncludeResource: font Helvetica-Bold
%%IncludeResource: font Helvetica-BoldOblique
%%IncludeResource: font Times-Roman
%%IncludeResource: font Times-Italic
%%IncludeResource: font Times-Bold
%%IncludeResource: font Times-BoldItalic
%%IncludeResource: font Courier
%FOPEndFontDict
%%BeginResource: encoding WinAnsiEncoding
/WinAnsiEncoding [
/.notdef /.notdef /.notdef /.notdef /.notdef
/.notdef /.notdef /.notdef /.notdef /.notdef
/.notdef /.notdef /.notdef /.notdef /.notdef
/.notdef /.notdef /.notdef /.notdef /.notdef
/.notdef /.notdef /.notdef /.notdef /.notdef
/.notdef /.notdef /.notdef /.notdef /.notdef
/.notdef /.notdef /space /exclam /quotedbl
/numbersign /dollar /percent /ampersand /quotesingle
/parenleft /parenright /asterisk /plus /comma
/hyphen /period /slash /zero /one
/two /three /four /five /six
/seven /eight /nine /colon /semicolon
/less /equal /greater /question /at
/A /B /C /D /E
/F /G /H /I /J
/K /L /M /N /O
/P /Q /R /S /T
/U /V /W /X /Y
/Z /bracketleft /backslash /bracketright /asciicircum
/underscore /quoteleft /a /b /c
/d /e /f /g /h
/i /j /k /l /m
/n /o /p /q /r
/s /t /u /v /w
/x /y /z /braceleft /bar
/braceright /asciitilde /bullet /Euro /bullet
/quotesinglbase /florin /quotedblbase /ellipsis /dagger
/daggerdbl /circumflex /perthousand /Scaron /guilsinglleft
/OE /bullet /Zcaron /bullet /bullet
/quoteleft /quoteright /quotedblleft /quotedblright /bullet
/endash /emdash /asciitilde /trademark /scaron
/guilsinglright /oe /bullet /zcaron /Ydieresis
/space /exclamdown /cent /sterling /currency
/yen /brokenbar /section /dieresis /copyright
/ordfeminine /guillemotleft /logicalnot /sfthyphen /registered
/macron /degree /plusminus /twosuperior /threesuperior
/acute /mu /paragraph /middot /cedilla
/onesuperior /ordmasculine /guillemotright /onequarter /onehalf
/threequarters /questiondown /Agrave /Aacute /Acircumflex
/Atilde /Adieresis /Aring /AE /Ccedilla
/Egrave /Eacute /Ecircumflex /Edieresis /Igrave
/Iacute /Icircumflex /Idieresis /Eth /Ntilde
/Ograve /Oacute /Ocircumflex /Otilde /Odieresis
/multiply /Oslash /Ugrave /Uacute /Ucircumflex
/Udieresis /Yacute /Thorn /germandbls /agrave
/aacute /acircumflex /atilde /adieresis /aring
/ae /ccedilla /egrave /eacute /ecircumflex
/edieresis /igrave /iacute /icircumflex /idieresis
/eth /ntilde /ograve /oacute /ocircumflex
/otilde /odieresis /divide /oslash /ugrave
/uacute /ucircumflex /udieresis /yacute /thorn
/ydieresis
] def
%%EndResource
%FOPBeginFontReencode
/Courier-Oblique findfont
dup length dict begin
  {1 index /FID ne {def} {pop pop} ifelse} forall
  /Encoding WinAnsiEncoding def
  currentdict
end
/Courier-Oblique exch definefont pop
/Courier-BoldOblique findfont
dup length dict begin
  {1 index /FID ne {def} {pop pop} ifelse} forall
  /Encoding WinAnsiEncoding def
  currentdict
end
/Courier-BoldOblique exch definefont pop
/Courier-Bold findfont
dup length dict begin
  {1 index /FID ne {def} {pop pop} ifelse} forall
  /Encoding WinAnsiEncoding def
  currentdict
end
/Courier-Bold exch definefont pop
/Helvetica findfont
dup length dict begin
  {1 index /FID ne {def} {pop pop} ifelse} forall
  /Encoding WinAnsiEncoding def
  currentdict
end
/Helvetica exch definefont pop
/Helvetica-Oblique findfont
dup length dict begin
  {1 index /FID ne {def} {pop pop} ifelse} forall
  /Encoding WinAnsiEncoding def
  currentdict
end
/Helvetica-Oblique exch definefont pop
/Helvetica-Bold findfont
dup length dict begin
  {1 index /FID ne {def} {pop pop} ifelse} forall
  /Encoding WinAnsiEncoding def
  currentdict
end
/Helvetica-Bold exch definefont pop
/Helvetica-BoldOblique findfont
dup length dict begin
  {1 index /FID ne {def} {pop pop} ifelse} forall
  /Encoding WinAnsiEncoding def
  currentdict
end
/Helvetica-BoldOblique exch definefont pop
/Times-Roman findfont
dup length dict begin
  {1 index /FID ne {def} {pop pop} ifelse} forall
  /Encoding WinAnsiEncoding def
  currentdict
end
/Times-Roman exch definefont pop
/Times-Italic findfont
dup length dict begin
  {1 index /FID ne {def} {pop pop} ifelse} forall
  /Encoding WinAnsiEncoding def
  currentdict
end
/Times-Italic exch definefont pop
/Times-Bold findfont
dup length dict begin
  {1 index /FID ne {def} {pop pop} ifelse} forall
  /Encoding WinAnsiEncoding def
  currentdict
end
/Times-Bold exch definefont pop
/Times-BoldItalic findfont
dup length dict begin
  {1 index /FID ne {def} {pop pop} ifelse} forall
  /Encoding WinAnsiEncoding def
  currentdict
end
/Times-BoldItalic exch definefont pop
/Courier findfont
dup length dict begin
  {1 index /FID ne {def} {pop pop} ifelse} forall
  /Encoding WinAnsiEncoding def
  currentdict
end
/Courier exch definefont pop
%FOPEndFontReencode
%%EndProlog
%%Page: 1 1
%%PageBoundingBox: 0 0 729 496
%%BeginPageSetup
[1 0 0 -1 0 496] CT
%%EndPageSetup
GS
1 GC
N
0 0 729 496 re
f
GR
GS
1 GC
N
0 0 729 496 re
f
GR
GS
1 GC
N
95 441.5 M
659.5 441.5 L
659.5 37 L
95 37 L
cp
f
GR
GS
0.149 GC
2 setlinecap
1 LJ
0.5 LW
N
95 441.5 M
659.5 441.5 L
S
GR
GS
0.149 GC
2 setlinecap
1 LJ
0.5 LW
N
95 37 M
659.5 37 L
S
GR
GS
0.149 GC
2 setlinecap
1 LJ
0.5 LW
N
95 441.5 M
95 435.855 L
S
GR
GS
0.149 GC
2 setlinecap
1 LJ
0.5 LW
N
189.083 441.5 M
189.083 435.855 L
S
GR
GS
0.149 GC
2 setlinecap
1 LJ
0.5 LW
N
283.167 441.5 M
283.167 435.855 L
S
GR
GS
0.149 GC
2 setlinecap
1 LJ
0.5 LW
N
377.25 441.5 M
377.25 435.855 L
S
GR
GS
0.149 GC
2 setlinecap
1 LJ
0.5 LW
N
471.333 441.5 M
471.333 435.855 L
S
GR
GS
0.149 GC
2 setlinecap
1 LJ
0.5 LW
N
565.417 441.5 M
565.417 435.855 L
S
GR
GS
0.149 GC
2 setlinecap
1 LJ
0.5 LW
N
659.5 441.5 M
659.5 435.855 L
S
GR
GS
0.149 GC
2 setlinecap
1 LJ
0.5 LW
N
95 37 M
95 42.645 L
S
GR
GS
0.149 GC
2 setlinecap
1 LJ
0.5 LW
N
189.083 37 M
189.083 42.645 L
S
GR
GS
0.149 GC
2 setlinecap
1 LJ
0.5 LW
N
283.167 37 M
283.167 42.645 L
S
GR
GS
0.149 GC
2 setlinecap
1 LJ
0.5 LW
N
377.25 37 M
377.25 42.645 L
S
GR
GS
0.149 GC
2 setlinecap
1 LJ
0.5 LW
N
471.333 37 M
471.333 42.645 L
S
GR
GS
0.149 GC
2 setlinecap
1 LJ
0.5 LW
N
565.417 37 M
565.417 42.645 L
S
GR
GS
0.149 GC
2 setlinecap
1 LJ
0.5 LW
N
659.5 37 M
659.5 42.645 L
S
GR
GS
[1 0 0 1 95 446.5] CT
0.149 GC
/Helvetica 15 F
GS
[1 0 0 1 0 0] CT
-4.5 15 moveto 
1 -1 scale
(0) t 
GR
GR
GS
[1 0 0 1 189.08333 446.5] CT
0.149 GC
/Helvetica 15 F
GS
[1 0 0 1 0 0] CT
-13 15 moveto 
1 -1 scale
(100) t 
GR
GR
GS
[1 0 0 1 283.16666 446.5] CT
0.149 GC
/Helvetica 15 F
GS
[1 0 0 1 0 0] CT
-13 15 moveto 
1 -1 scale
(200) t 
GR
GR
GS
[1 0 0 1 377.25 446.5] CT
0.149 GC
/Helvetica 15 F
GS
[1 0 0 1 0 0] CT
-13 15 moveto 
1 -1 scale
(300) t 
GR
GR
GS
[1 0 0 1 471.33334 446.5] CT
0.149 GC
/Helvetica 15 F
GS
[1 0 0 1 0 0] CT
-13 15 moveto 
1 -1 scale
(400) t 
GR
GR
GS
[1 0 0 1 565.41669 446.5] CT
0.149 GC
/Helvetica 15 F
GS
[1 0 0 1 0 0] CT
-13 15 moveto 
1 -1 scale
(500) t 
GR
GR
GS
[1 0 0 1 659.5 446.5] CT
0.149 GC
/Helvetica 15 F
GS
[1 0 0 1 0 0] CT
-13 15 moveto 
1 -1 scale
(600) t 
GR
GR
GS
[1 0 0 1 377.25024 465.5] CT
0.149 GC
/Helvetica 16.5 F
GS
[1 0 0 1 0 0] CT
-45.5 16 moveto 
1 -1 scale
(dimension d) t 
GR
GR
GS
0.149 GC
2 setlinecap
1 LJ
0.5 LW
N
95 441.5 M
95 37 L
S
GR
GS
0.149 GC
2 setlinecap
1 LJ
0.5 LW
N
659.5 441.5 M
659.5 37 L
S
GR
GS
0.149 GC
2 setlinecap
1 LJ
0.5 LW
N
95 441.5 M
100.645 441.5 L
S
GR
GS
0.149 GC
2 setlinecap
1 LJ
0.5 LW
N
95 390.938 M
100.645 390.938 L
S
GR
GS
0.149 GC
2 setlinecap
1 LJ
0.5 LW
N
95 340.375 M
100.645 340.375 L
S
GR
GS
0.149 GC
2 setlinecap
1 LJ
0.5 LW
N
95 289.813 M
100.645 289.813 L
S
GR
GS
0.149 GC
2 setlinecap
1 LJ
0.5 LW
N
95 239.25 M
100.645 239.25 L
S
GR
GS
0.149 GC
2 setlinecap
1 LJ
0.5 LW
N
95 188.688 M
100.645 188.688 L
S
GR
GS
0.149 GC
2 setlinecap
1 LJ
0.5 LW
N
95 138.125 M
100.645 138.125 L
S
GR
GS
0.149 GC
2 setlinecap
1 LJ
0.5 LW
N
95 87.563 M
100.645 87.563 L
S
GR
GS
0.149 GC
2 setlinecap
1 LJ
0.5 LW
N
95 37 M
100.645 37 L
S
GR
GS
0.149 GC
2 setlinecap
1 LJ
0.5 LW
N
659.5 441.5 M
653.855 441.5 L
S
GR
GS
0.149 GC
2 setlinecap
1 LJ
0.5 LW
N
659.5 390.938 M
653.855 390.938 L
S
GR
GS
0.149 GC
2 setlinecap
1 LJ
0.5 LW
N
659.5 340.375 M
653.855 340.375 L
S
GR
GS
0.149 GC
2 setlinecap
1 LJ
0.5 LW
N
659.5 289.813 M
653.855 289.813 L
S
GR
GS
0.149 GC
2 setlinecap
1 LJ
0.5 LW
N
659.5 239.25 M
653.855 239.25 L
S
GR
GS
0.149 GC
2 setlinecap
1 LJ
0.5 LW
N
659.5 188.688 M
653.855 188.688 L
S
GR
GS
0.149 GC
2 setlinecap
1 LJ
0.5 LW
N
659.5 138.125 M
653.855 138.125 L
S
GR
GS
0.149 GC
2 setlinecap
1 LJ
0.5 LW
N
659.5 87.563 M
653.855 87.563 L
S
GR
GS
0.149 GC
2 setlinecap
1 LJ
0.5 LW
N
659.5 37 M
653.855 37 L
S
GR
GS
[1 0 0 1 90 441.5] CT
0.149 GC
/Helvetica 15 F
GS
[1 0 0 1 0 0] CT
-9 5.5 moveto 
1 -1 scale
(0) t 
GR
GR
GS
[1 0 0 1 90 390.9375] CT
0.149 GC
/Helvetica 15 F
GS
[1 0 0 1 0 0] CT
-17 5.5 moveto 
1 -1 scale
(10) t 
GR
GR
GS
[1 0 0 1 90 340.375] CT
0.149 GC
/Helvetica 15 F
GS
[1 0 0 1 0 0] CT
-17 5.5 moveto 
1 -1 scale
(20) t 
GR
GR
GS
[1 0 0 1 90 289.8125] CT
0.149 GC
/Helvetica 15 F
GS
[1 0 0 1 0 0] CT
-17 5.5 moveto 
1 -1 scale
(30) t 
GR
GR
GS
[1 0 0 1 90 239.25] CT
0.149 GC
/Helvetica 15 F
GS
[1 0 0 1 0 0] CT
-17 5.5 moveto 
1 -1 scale
(40) t 
GR
GR
GS
[1 0 0 1 90 188.6875] CT
0.149 GC
/Helvetica 15 F
GS
[1 0 0 1 0 0] CT
-17 5.5 moveto 
1 -1 scale
(50) t 
GR
GR
GS
[1 0 0 1 90 138.125] CT
0.149 GC
/Helvetica 15 F
GS
[1 0 0 1 0 0] CT
-17 5.5 moveto 
1 -1 scale
(60) t 
GR
GR
GS
[1 0 0 1 90 87.5625] CT
0.149 GC
/Helvetica 15 F
GS
[1 0 0 1 0 0] CT
-17 5.5 moveto 
1 -1 scale
(70) t 
GR
GR
GS
[1 0 0 1 90 37] CT
0.149 GC
/Helvetica 15 F
GS
[1 0 0 1 0 0] CT
-17 5.5 moveto 
1 -1 scale
(80) t 
GR
GR
GS
[0 -1 1 0 70 239.2498] CT
0.149 GC
/Helvetica 16.5 F
GS
[1 0 0 1 0 0] CT
-105.5 -4 moveto 
1 -1 scale
(number of small eigenvalues) t 
GR
GR
GS
1 0 0 RC
1 LJ
0.5 LW
N
104.408 425.511 M
107.231 423.269 L
110.053 421.275 L
112.876 419.46 L
117.58 416.73 L
122.284 414.271 L
128.87 411.163 L
137.337 407.582 L
146.746 404.002 L
158.977 399.805 L
174.03 395.159 L
192.847 389.936 L
215.427 384.295 L
243.652 377.944 L
278.462 370.893 L
321.741 363.006 L
375.368 354.216 L
441.227 344.504 L
523.079 333.647 L
624.689 321.527 L
S
GR
GS
0 0 1 RC
1 LJ
2 LW
N
104.408 430.376 M
107.231 429.365 L
110.053 425.32 L
112.876 424.562 L
117.58 419.505 L
122.284 416.219 L
128.87 411.668 L
137.337 403.325 L
146.746 398.016 L
158.977 390.179 L
174.03 380.319 L
192.847 370.712 L
215.427 357.313 L
243.652 342.65 L
278.462 326.217 L
321.741 304.981 L
375.368 281.217 L
441.227 253.913 L
523.079 219.278 L
624.689 182.114 L
S
GR
GS
0 1 0 RC
1 LJ
2 LW
N
104.408 434.927 M
107.231 434.168 L
110.053 430.882 L
112.876 432.652 L
117.58 432.146 L
122.284 429.618 L
128.87 430.376 L
137.337 428.859 L
146.746 428.859 L
158.977 429.618 L
174.03 428.101 L
192.847 431.388 L
215.427 432.904 L
243.652 430.376 L
278.462 435.685 L
321.741 437.961 L
375.368 440.236 L
441.227 441.5 L
523.079 441.5 L
624.689 441.5 L
S
GR
GS
1 0 1 RC
[8 8] 0 setdash
2 LJ
2 LW
N
104.408 436.697 M
107.231 435.18 L
110.053 430.882 L
112.876 430.629 L
117.58 428.101 L
122.284 423.803 L
128.87 418.747 L
137.337 411.921 L
146.746 405.853 L
158.977 398.269 L
174.03 385.628 L
192.847 372.229 L
215.427 358.578 L
243.652 332.538 L
278.462 306.498 L
321.741 274.644 L
375.368 240.008 L
441.227 191.468 L
523.079 127.001 L
624.689 54.697 L
S
GR
GS
1 GC
N
458.5 122.5 M
458.5 53 L
296.5 53 L
296.5 122.5 L
cp
f
GR
GS
[1 0 0 1 333.5 63] CT
/Helvetica 13.5 F
GS
[1 0 0 1 0 0] CT
0 5 moveto 
1 -1 scale
(sqrt\(d\)) t 
GR
GR
GS
1 0 0 RC
1 LJ
0.5 LW
N
300.5 63 M
330.5 63 L
S
GR
GS
[1 0 0 1 333.5 79.5] CT
/Helvetica 13.5 F
GS
[1 0 0 1 0 0] CT
0 5 moveto 
1 -1 scale
(1xd, eigs < 1/sqrt\(d\)) t 
GR
GR
GS
0 0 1 RC
1 LJ
2 LW
N
300.5 79.5 M
330.5 79.5 L
S
GR
GS
[1 0 0 1 333.5 96] CT
/Helvetica 13.5 F
GS
[1 0 0 1 0 0] CT
0 5 moveto 
1 -1 scale
(2xd, eigs < 1/sqrt\(d\)) t 
GR
GR
GS
0 1 0 RC
1 LJ
2 LW
N
300.5 96 M
330.5 96 L
S
GR
GS
[1 0 0 1 333.5 112.5] CT
/Helvetica 13.5 F
GS
[1 0 0 1 0 0] CT
0 5 moveto 
1 -1 scale
(2xd, eigs < 1/4) t 
GR
GR
GS
1 0 1 RC
[8 8] 0 setdash
2 LJ
2 LW
N
300.5 112.5 M
330.5 112.5 L
S
GR
GS
0.149 GC
10.0 ML
0.5 LW
N
296.5 122.5 M
296.5 53 L
458.5 53 L
458.5 122.5 L
cp
S
GR
%%Trailer
%%Pages: 1
%%EOF
