%!PS-Adobe-3.0 EPSF-3.0
%%Creator: (MATLAB, The Mathworks, Inc. Version 9.4.0.813654 \(R2018a\). Operating System: Mac OS X)
%%Title: /Users/michal/Repositories/spectral/figs/small-eigs.eps
%%CreationDate: 2018-09-22T23:44:32
%%Pages: (atend)
%%BoundingBox: 0 0 835 565
%%LanguageLevel: 3
%%EndComments
%%BeginProlog
%%BeginResource: procset (Apache XML Graphics Std ProcSet) 1.2 0
%%Version: 1.2 0
%%Copyright: (Copyright 2001-2003,2010 The Apache Software Foundation. License terms: http://www.apache.org/licenses/LICENSE-2.0)
/bd{bind def}bind def
/ld{load def}bd
/GR/grestore ld
/GS/gsave ld
/RM/rmoveto ld
/C/curveto ld
/t/show ld
/L/lineto ld
/ML/setmiterlimit ld
/CT/concat ld
/f/fill ld
/N/newpath ld
/S/stroke ld
/CC/setcmykcolor ld
/A/ashow ld
/cp/closepath ld
/RC/setrgbcolor ld
/LJ/setlinejoin ld
/GC/setgray ld
/LW/setlinewidth ld
/M/moveto ld
/re {4 2 roll M
1 index 0 rlineto
0 exch rlineto
neg 0 rlineto
cp } bd
/_ctm matrix def
/_tm matrix def
/BT { _ctm currentmatrix pop matrix _tm copy pop 0 0 moveto } bd
/ET { _ctm setmatrix } bd
/iTm { _ctm setmatrix _tm concat } bd
/Tm { _tm astore pop iTm 0 0 moveto } bd
/ux 0.0 def
/uy 0.0 def
/F {
  /Tp exch def
  /Tf exch def
  Tf findfont Tp scalefont setfont
  /cf Tf def  /cs Tp def
} bd
/ULS {currentpoint /uy exch def /ux exch def} bd
/ULE {
  /Tcx currentpoint pop def
  gsave
  newpath
  cf findfont cs scalefont dup
  /FontMatrix get 0 get /Ts exch def /FontInfo get dup
  /UnderlinePosition get Ts mul /To exch def
  /UnderlineThickness get Ts mul /Tt exch def
  ux uy To add moveto  Tcx uy To add lineto
  Tt setlinewidth stroke
  grestore
} bd
/OLE {
  /Tcx currentpoint pop def
  gsave
  newpath
  cf findfont cs scalefont dup
  /FontMatrix get 0 get /Ts exch def /FontInfo get dup
  /UnderlinePosition get Ts mul /To exch def
  /UnderlineThickness get Ts mul /Tt exch def
  ux uy To add cs add moveto Tcx uy To add cs add lineto
  Tt setlinewidth stroke
  grestore
} bd
/SOE {
  /Tcx currentpoint pop def
  gsave
  newpath
  cf findfont cs scalefont dup
  /FontMatrix get 0 get /Ts exch def /FontInfo get dup
  /UnderlinePosition get Ts mul /To exch def
  /UnderlineThickness get Ts mul /Tt exch def
  ux uy To add cs 10 mul 26 idiv add moveto Tcx uy To add cs 10 mul 26 idiv add lineto
  Tt setlinewidth stroke
  grestore
} bd
/QT {
/Y22 exch store
/X22 exch store
/Y21 exch store
/X21 exch store
currentpoint
/Y21 load 2 mul add 3 div exch
/X21 load 2 mul add 3 div exch
/X21 load 2 mul /X22 load add 3 div
/Y21 load 2 mul /Y22 load add 3 div
/X22 load /Y22 load curveto
} bd
/SSPD {
dup length /d exch dict def
{
/v exch def
/k exch def
currentpagedevice k known {
/cpdv currentpagedevice k get def
v cpdv ne {
/upd false def
/nullv v type /nulltype eq def
/nullcpdv cpdv type /nulltype eq def
nullv nullcpdv or
{
/upd true def
} {
/sametype v type cpdv type eq def
sametype {
v type /arraytype eq {
/vlen v length def
/cpdvlen cpdv length def
vlen cpdvlen eq {
0 1 vlen 1 sub {
/i exch def
/obj v i get def
/cpdobj cpdv i get def
obj cpdobj ne {
/upd true def
exit
} if
} for
} {
/upd true def
} ifelse
} {
v type /dicttype eq {
v {
/dv exch def
/dk exch def
/cpddv cpdv dk get def
dv cpddv ne {
/upd true def
exit
} if
} forall
} {
/upd true def
} ifelse
} ifelse
} if
} ifelse
upd true eq {
d k v put
} if
} if
} if
} forall
d length 0 gt {
d setpagedevice
} if
} bd
/RE { % /NewFontName [NewEncodingArray] /FontName RE -
  findfont dup length dict begin
  {
    1 index /FID ne
    {def} {pop pop} ifelse
  } forall
  /Encoding exch def
  /FontName 1 index def
  currentdict definefont pop
  end
} bind def
%%EndResource
%%BeginResource: procset (Apache XML Graphics EPS ProcSet) 1.0 0
%%Version: 1.0 0
%%Copyright: (Copyright 2002-2003 The Apache Software Foundation. License terms: http://www.apache.org/licenses/LICENSE-2.0)
/BeginEPSF { %def
/b4_Inc_state save def         % Save state for cleanup
/dict_count countdictstack def % Count objects on dict stack
/op_count count 1 sub def      % Count objects on operand stack
userdict begin                 % Push userdict on dict stack
/showpage { } def              % Redefine showpage, { } = null proc
0 setgray 0 setlinecap         % Prepare graphics state
1 setlinewidth 0 setlinejoin
10 setmiterlimit [ ] 0 setdash newpath
/languagelevel where           % If level not equal to 1 then
{pop languagelevel             % set strokeadjust and
1 ne                           % overprint to their defaults.
{false setstrokeadjust false setoverprint
} if
} if
} bd
/EndEPSF { %def
count op_count sub {pop} repeat            % Clean up stacks
countdictstack dict_count sub {end} repeat
b4_Inc_state restore
} bd
%%EndResource
%FOPBeginFontDict
%%IncludeResource: font Courier-Oblique
%%IncludeResource: font Courier-BoldOblique
%%IncludeResource: font Courier-Bold
%%IncludeResource: font ZapfDingbats
%%IncludeResource: font Symbol
%%IncludeResource: font Helvetica
%%IncludeResource: font Helvetica-Oblique
%%IncludeResource: font Helvetica-Bold
%%IncludeResource: font Helvetica-BoldOblique
%%IncludeResource: font Times-Roman
%%IncludeResource: font Times-Italic
%%IncludeResource: font Times-Bold
%%IncludeResource: font Times-BoldItalic
%%IncludeResource: font Courier
%FOPEndFontDict
%%BeginResource: encoding WinAnsiEncoding
/WinAnsiEncoding [
/.notdef /.notdef /.notdef /.notdef /.notdef
/.notdef /.notdef /.notdef /.notdef /.notdef
/.notdef /.notdef /.notdef /.notdef /.notdef
/.notdef /.notdef /.notdef /.notdef /.notdef
/.notdef /.notdef /.notdef /.notdef /.notdef
/.notdef /.notdef /.notdef /.notdef /.notdef
/.notdef /.notdef /space /exclam /quotedbl
/numbersign /dollar /percent /ampersand /quotesingle
/parenleft /parenright /asterisk /plus /comma
/hyphen /period /slash /zero /one
/two /three /four /five /six
/seven /eight /nine /colon /semicolon
/less /equal /greater /question /at
/A /B /C /D /E
/F /G /H /I /J
/K /L /M /N /O
/P /Q /R /S /T
/U /V /W /X /Y
/Z /bracketleft /backslash /bracketright /asciicircum
/underscore /quoteleft /a /b /c
/d /e /f /g /h
/i /j /k /l /m
/n /o /p /q /r
/s /t /u /v /w
/x /y /z /braceleft /bar
/braceright /asciitilde /bullet /Euro /bullet
/quotesinglbase /florin /quotedblbase /ellipsis /dagger
/daggerdbl /circumflex /perthousand /Scaron /guilsinglleft
/OE /bullet /Zcaron /bullet /bullet
/quoteleft /quoteright /quotedblleft /quotedblright /bullet
/endash /emdash /asciitilde /trademark /scaron
/guilsinglright /oe /bullet /zcaron /Ydieresis
/space /exclamdown /cent /sterling /currency
/yen /brokenbar /section /dieresis /copyright
/ordfeminine /guillemotleft /logicalnot /sfthyphen /registered
/macron /degree /plusminus /twosuperior /threesuperior
/acute /mu /paragraph /middot /cedilla
/onesuperior /ordmasculine /guillemotright /onequarter /onehalf
/threequarters /questiondown /Agrave /Aacute /Acircumflex
/Atilde /Adieresis /Aring /AE /Ccedilla
/Egrave /Eacute /Ecircumflex /Edieresis /Igrave
/Iacute /Icircumflex /Idieresis /Eth /Ntilde
/Ograve /Oacute /Ocircumflex /Otilde /Odieresis
/multiply /Oslash /Ugrave /Uacute /Ucircumflex
/Udieresis /Yacute /Thorn /germandbls /agrave
/aacute /acircumflex /atilde /adieresis /aring
/ae /ccedilla /egrave /eacute /ecircumflex
/edieresis /igrave /iacute /icircumflex /idieresis
/eth /ntilde /ograve /oacute /ocircumflex
/otilde /odieresis /divide /oslash /ugrave
/uacute /ucircumflex /udieresis /yacute /thorn
/ydieresis
] def
%%EndResource
%FOPBeginFontReencode
/Courier-Oblique findfont
dup length dict begin
  {1 index /FID ne {def} {pop pop} ifelse} forall
  /Encoding WinAnsiEncoding def
  currentdict
end
/Courier-Oblique exch definefont pop
/Courier-BoldOblique findfont
dup length dict begin
  {1 index /FID ne {def} {pop pop} ifelse} forall
  /Encoding WinAnsiEncoding def
  currentdict
end
/Courier-BoldOblique exch definefont pop
/Courier-Bold findfont
dup length dict begin
  {1 index /FID ne {def} {pop pop} ifelse} forall
  /Encoding WinAnsiEncoding def
  currentdict
end
/Courier-Bold exch definefont pop
/Helvetica findfont
dup length dict begin
  {1 index /FID ne {def} {pop pop} ifelse} forall
  /Encoding WinAnsiEncoding def
  currentdict
end
/Helvetica exch definefont pop
/Helvetica-Oblique findfont
dup length dict begin
  {1 index /FID ne {def} {pop pop} ifelse} forall
  /Encoding WinAnsiEncoding def
  currentdict
end
/Helvetica-Oblique exch definefont pop
/Helvetica-Bold findfont
dup length dict begin
  {1 index /FID ne {def} {pop pop} ifelse} forall
  /Encoding WinAnsiEncoding def
  currentdict
end
/Helvetica-Bold exch definefont pop
/Helvetica-BoldOblique findfont
dup length dict begin
  {1 index /FID ne {def} {pop pop} ifelse} forall
  /Encoding WinAnsiEncoding def
  currentdict
end
/Helvetica-BoldOblique exch definefont pop
/Times-Roman findfont
dup length dict begin
  {1 index /FID ne {def} {pop pop} ifelse} forall
  /Encoding WinAnsiEncoding def
  currentdict
end
/Times-Roman exch definefont pop
/Times-Italic findfont
dup length dict begin
  {1 index /FID ne {def} {pop pop} ifelse} forall
  /Encoding WinAnsiEncoding def
  currentdict
end
/Times-Italic exch definefont pop
/Times-Bold findfont
dup length dict begin
  {1 index /FID ne {def} {pop pop} ifelse} forall
  /Encoding WinAnsiEncoding def
  currentdict
end
/Times-Bold exch definefont pop
/Times-BoldItalic findfont
dup length dict begin
  {1 index /FID ne {def} {pop pop} ifelse} forall
  /Encoding WinAnsiEncoding def
  currentdict
end
/Times-BoldItalic exch definefont pop
/Courier findfont
dup length dict begin
  {1 index /FID ne {def} {pop pop} ifelse} forall
  /Encoding WinAnsiEncoding def
  currentdict
end
/Courier exch definefont pop
%FOPEndFontReencode
%%EndProlog
%%Page: 1 1
%%PageBoundingBox: 0 0 835 565
%%BeginPageSetup
[1 0 0 -1 0 565] CT
%%EndPageSetup
GS
1 GC
N
0 0 835 565 re
f
GR
GS
1 GC
N
0 0 835 565 re
f
GR
GS
1 GC
N
108.5 503 M
755.5 503 L
755.5 42.5 L
108.5 42.5 L
cp
f
GR
GS
0.149 GC
2 setlinecap
1 LJ
0.5 LW
N
108.5 503 M
755.5 503 L
S
GR
GS
0.149 GC
2 setlinecap
1 LJ
0.5 LW
N
108.5 42.5 M
755.5 42.5 L
S
GR
GS
0.149 GC
2 setlinecap
1 LJ
0.5 LW
N
108.5 503 M
108.5 496.53 L
S
GR
GS
0.149 GC
2 setlinecap
1 LJ
0.5 LW
N
189.375 503 M
189.375 496.53 L
S
GR
GS
0.149 GC
2 setlinecap
1 LJ
0.5 LW
N
270.25 503 M
270.25 496.53 L
S
GR
GS
0.149 GC
2 setlinecap
1 LJ
0.5 LW
N
351.125 503 M
351.125 496.53 L
S
GR
GS
0.149 GC
2 setlinecap
1 LJ
0.5 LW
N
432 503 M
432 496.53 L
S
GR
GS
0.149 GC
2 setlinecap
1 LJ
0.5 LW
N
512.875 503 M
512.875 496.53 L
S
GR
GS
0.149 GC
2 setlinecap
1 LJ
0.5 LW
N
593.75 503 M
593.75 496.53 L
S
GR
GS
0.149 GC
2 setlinecap
1 LJ
0.5 LW
N
674.625 503 M
674.625 496.53 L
S
GR
GS
0.149 GC
2 setlinecap
1 LJ
0.5 LW
N
755.5 503 M
755.5 496.53 L
S
GR
GS
0.149 GC
2 setlinecap
1 LJ
0.5 LW
N
108.5 42.5 M
108.5 48.97 L
S
GR
GS
0.149 GC
2 setlinecap
1 LJ
0.5 LW
N
189.375 42.5 M
189.375 48.97 L
S
GR
GS
0.149 GC
2 setlinecap
1 LJ
0.5 LW
N
270.25 42.5 M
270.25 48.97 L
S
GR
GS
0.149 GC
2 setlinecap
1 LJ
0.5 LW
N
351.125 42.5 M
351.125 48.97 L
S
GR
GS
0.149 GC
2 setlinecap
1 LJ
0.5 LW
N
432 42.5 M
432 48.97 L
S
GR
GS
0.149 GC
2 setlinecap
1 LJ
0.5 LW
N
512.875 42.5 M
512.875 48.97 L
S
GR
GS
0.149 GC
2 setlinecap
1 LJ
0.5 LW
N
593.75 42.5 M
593.75 48.97 L
S
GR
GS
0.149 GC
2 setlinecap
1 LJ
0.5 LW
N
674.625 42.5 M
674.625 48.97 L
S
GR
GS
0.149 GC
2 setlinecap
1 LJ
0.5 LW
N
755.5 42.5 M
755.5 48.97 L
S
GR
GS
[1 0 0 1 108.5 508] CT
0.149 GC
/Helvetica 15 F
GS
[1 0 0 1 0 0] CT
-4.5 15 moveto 
1 -1 scale
(0) t 
GR
GR
GS
[1 0 0 1 189.375 508] CT
0.149 GC
/Helvetica 15 F
GS
[1 0 0 1 0 0] CT
-13 15 moveto 
1 -1 scale
(100) t 
GR
GR
GS
[1 0 0 1 270.25 508] CT
0.149 GC
/Helvetica 15 F
GS
[1 0 0 1 0 0] CT
-13 15 moveto 
1 -1 scale
(200) t 
GR
GR
GS
[1 0 0 1 351.125 508] CT
0.149 GC
/Helvetica 15 F
GS
[1 0 0 1 0 0] CT
-13 15 moveto 
1 -1 scale
(300) t 
GR
GR
GS
[1 0 0 1 432 508] CT
0.149 GC
/Helvetica 15 F
GS
[1 0 0 1 0 0] CT
-13 15 moveto 
1 -1 scale
(400) t 
GR
GR
GS
[1 0 0 1 512.875 508] CT
0.149 GC
/Helvetica 15 F
GS
[1 0 0 1 0 0] CT
-13 15 moveto 
1 -1 scale
(500) t 
GR
GR
GS
[1 0 0 1 593.75 508] CT
0.149 GC
/Helvetica 15 F
GS
[1 0 0 1 0 0] CT
-13 15 moveto 
1 -1 scale
(600) t 
GR
GR
GS
[1 0 0 1 674.625 508] CT
0.149 GC
/Helvetica 15 F
GS
[1 0 0 1 0 0] CT
-13 15 moveto 
1 -1 scale
(700) t 
GR
GR
GS
[1 0 0 1 755.5 508] CT
0.149 GC
/Helvetica 15 F
GS
[1 0 0 1 0 0] CT
-13 15 moveto 
1 -1 scale
(800) t 
GR
GR
GS
[1 0 0 1 432.00034 527] CT
0.149 GC
/Helvetica 16.5 F
GS
[1 0 0 1 0 0] CT
-45.5 16 moveto 
1 -1 scale
(dimension d) t 
GR
GR
GS
0.149 GC
2 setlinecap
1 LJ
0.5 LW
N
108.5 503 M
108.5 42.5 L
S
GR
GS
0.149 GC
2 setlinecap
1 LJ
0.5 LW
N
755.5 503 M
755.5 42.5 L
S
GR
GS
0.149 GC
2 setlinecap
1 LJ
0.5 LW
N
108.5 503 M
114.97 503 L
S
GR
GS
0.149 GC
2 setlinecap
1 LJ
0.5 LW
N
108.5 426.25 M
114.97 426.25 L
S
GR
GS
0.149 GC
2 setlinecap
1 LJ
0.5 LW
N
108.5 349.5 M
114.97 349.5 L
S
GR
GS
0.149 GC
2 setlinecap
1 LJ
0.5 LW
N
108.5 272.75 M
114.97 272.75 L
S
GR
GS
0.149 GC
2 setlinecap
1 LJ
0.5 LW
N
108.5 196 M
114.97 196 L
S
GR
GS
0.149 GC
2 setlinecap
1 LJ
0.5 LW
N
108.5 119.25 M
114.97 119.25 L
S
GR
GS
0.149 GC
2 setlinecap
1 LJ
0.5 LW
N
108.5 42.5 M
114.97 42.5 L
S
GR
GS
0.149 GC
2 setlinecap
1 LJ
0.5 LW
N
755.5 503 M
749.03 503 L
S
GR
GS
0.149 GC
2 setlinecap
1 LJ
0.5 LW
N
755.5 426.25 M
749.03 426.25 L
S
GR
GS
0.149 GC
2 setlinecap
1 LJ
0.5 LW
N
755.5 349.5 M
749.03 349.5 L
S
GR
GS
0.149 GC
2 setlinecap
1 LJ
0.5 LW
N
755.5 272.75 M
749.03 272.75 L
S
GR
GS
0.149 GC
2 setlinecap
1 LJ
0.5 LW
N
755.5 196 M
749.03 196 L
S
GR
GS
0.149 GC
2 setlinecap
1 LJ
0.5 LW
N
755.5 119.25 M
749.03 119.25 L
S
GR
GS
0.149 GC
2 setlinecap
1 LJ
0.5 LW
N
755.5 42.5 M
749.03 42.5 L
S
GR
GS
[1 0 0 1 103.5 503] CT
0.149 GC
/Helvetica 15 F
GS
[1 0 0 1 0 0] CT
-9 5.5 moveto 
1 -1 scale
(0) t 
GR
GR
GS
[1 0 0 1 103.5 426.25] CT
0.149 GC
/Helvetica 15 F
GS
[1 0 0 1 0 0] CT
-9 5.5 moveto 
1 -1 scale
(5) t 
GR
GR
GS
[1 0 0 1 103.5 349.5] CT
0.149 GC
/Helvetica 15 F
GS
[1 0 0 1 0 0] CT
-17 5.5 moveto 
1 -1 scale
(10) t 
GR
GR
GS
[1 0 0 1 103.5 272.75] CT
0.149 GC
/Helvetica 15 F
GS
[1 0 0 1 0 0] CT
-17 5.5 moveto 
1 -1 scale
(15) t 
GR
GR
GS
[1 0 0 1 103.5 196] CT
0.149 GC
/Helvetica 15 F
GS
[1 0 0 1 0 0] CT
-17 5.5 moveto 
1 -1 scale
(20) t 
GR
GR
GS
[1 0 0 1 103.5 119.25] CT
0.149 GC
/Helvetica 15 F
GS
[1 0 0 1 0 0] CT
-17 5.5 moveto 
1 -1 scale
(25) t 
GR
GR
GS
[1 0 0 1 103.5 42.5] CT
0.149 GC
/Helvetica 15 F
GS
[1 0 0 1 0 0] CT
-17 5.5 moveto 
1 -1 scale
(30) t 
GR
GR
GS
[0 -1 1 0 83.5 272.74979] CT
0.149 GC
/Helvetica 16.5 F
GS
[1 0 0 1 0 0] CT
-105.5 -4 moveto 
1 -1 scale
(number of small eigenvalues) t 
GR
GR
GS
1 0 0 RC
1 LJ
0.5 LW
N
109.309 487.65 M
110.118 481.292 L
110.926 476.413 L
110.926 476.413 L
112.544 468.676 L
113.353 465.4 L
115.779 456.95 L
118.205 449.826 L
122.249 439.71 L
127.91 427.801 L
135.997 413.495 L
147.32 396.652 L
163.495 376.421 L
186.949 351.82 L
220.107 322.678 L
266.206 288.649 L
332.524 247.525 L
427.147 198.311 L
560.591 140.077 L
751.456 70.195 L
S
GR
GS
0 0 1 RC
1 LJ
2 LW
N
109.309 503 M
110.118 493.329 L
110.926 491.794 L
110.926 490.72 L
112.544 485.961 L
113.353 484.427 L
115.779 477.826 L
118.205 470.612 L
122.249 460.634 L
127.91 455.415 L
135.997 441.293 L
147.32 426.711 L
163.495 406.295 L
186.949 388.643 L
220.107 362.394 L
266.206 332.615 L
332.524 294.701 L
427.147 252.795 L
560.591 201.219 L
751.456 133.525 L
S
GR
GS
0 1 0 RC
1 LJ
2 LW
N
109.309 487.65 M
110.118 487.19 L
110.926 489.031 L
110.926 487.496 L
112.544 484.733 L
113.353 488.418 L
115.779 489.031 L
118.205 487.19 L
122.249 486.883 L
127.91 489.799 L
135.997 491.334 L
147.32 490.413 L
163.495 492.255 L
186.949 494.097 L
220.107 496.246 L
266.206 496.86 L
332.524 498.088 L
427.147 497.781 L
560.591 499.623 L
751.456 500.544 L
S
GR
GS
1 0 1 RC
[8 8] 0 setdash
2 LJ
2 LW
N
109.309 503 M
110.118 501.926 L
110.926 501.618 L
110.926 501.618 L
112.544 497.935 L
113.353 499.47 L
115.779 495.018 L
118.205 491.027 L
122.249 485.655 L
127.91 483.505 L
135.997 478.901 L
147.32 471.533 L
163.495 462.016 L
186.949 456.643 L
220.107 455.569 L
266.206 451.271 L
332.524 449.736 L
427.147 444.21 L
560.591 444.056 L
751.456 437.456 L
S
GR
GS
1 GC
N
729 307.5 M
729 238 L
567 238 L
567 307.5 L
cp
f
GR
GS
[1 0 0 1 604 248] CT
/Helvetica 13.5 F
GS
[1 0 0 1 0 0] CT
0 5 moveto 
1 -1 scale
(sqrt\(d\)) t 
GR
GR
GS
1 0 0 RC
1 LJ
0.5 LW
N
571 248 M
601 248 L
S
GR
GS
[1 0 0 1 604 264.5] CT
/Helvetica 13.5 F
GS
[1 0 0 1 0 0] CT
0 5 moveto 
1 -1 scale
(1xd, eigs < 1/sqrt\(d\)) t 
GR
GR
GS
0 0 1 RC
1 LJ
2 LW
N
571 264.5 M
601 264.5 L
S
GR
GS
[1 0 0 1 604 281] CT
/Helvetica 13.5 F
GS
[1 0 0 1 0 0] CT
0 5 moveto 
1 -1 scale
(2xd, eigs < 1/sqrt\(d\)) t 
GR
GR
GS
0 1 0 RC
1 LJ
2 LW
N
571 281 M
601 281 L
S
GR
GS
[1 0 0 1 604 297.5] CT
/Helvetica 13.5 F
GS
[1 0 0 1 0 0] CT
0 5 moveto 
1 -1 scale
(2xd, eigs < 1/4) t 
GR
GR
GS
1 0 1 RC
[8 8] 0 setdash
2 LJ
2 LW
N
571 297.5 M
601 297.5 L
S
GR
GS
0.149 GC
10.0 ML
0.5 LW
N
567 307.5 M
567 238 L
729 238 L
729 307.5 L
cp
S
GR
%%Trailer
%%Pages: 1
%%EOF
